||            Date: 2020-05-06   Time : 15:23:50
 ****************************************************************************************************************************
{"HouseholdProfileInfo":"{\n    \"PDSHousehold\": null,\n    \"PDSHouseholdMembers\": null,\n    \"PLWHousehold\": {\n        \"ProfileDSHeaderID\": \"f2110c19-e41a-4362-b747-10874f5d7068\",\n        \"ProfileDSDetailID\": \"fd109761-dadf-4ca1-8354-d2cb7fab7ae2\",\n        \"HouseHold\": \"PLW\",\n        \"KebeleID\": 1025,\n        \"Gote\": \"gote\",\n        \"Gare\": \"gare\",\n        \"CollectionDate\": \"2020-05-06T15:13:38.34612\",\n        \"SocialWorker\": \"Admin\",\n        \"CCCCBSPCMember\": \"ccc\",\n        \"PLW\": \"P\",\n        \"NameOfPLW\": \"plw p\",\n        \"HouseHoldIDNumber\": \"psnp\",\n        \"MedicalRecordNumber\": \"id\",\n        \"PLWAge\": 38,\n        \"NutritionalStatusPLW\": \"N\",\n        \"StartDateTDS\": \"2009-01-01T00:00:00\",\n        \"EndDateTDS\": \"2009-01-01T00:00:00\",\n        \"Remarks\": \"rmk\",\n        \"ChildProtectionRisk\": \"NO\",\n        \"CBHIMembership\": \"YES\",\n        \"CBHINumber\": \"cbhi\",\n        \"CreatedBy\": \"Admin\",\n        \"CreatedOn\": \"2020-05-06T15:13:38.347928\",\n        \"UserDevice\": {\n            \"DataId\": \"f2110c19-e41a-4362-b747-10874f5d7068\",\n            \"ModuleName\": \"Household Profile\",\n            \"AppVersion\": \"3.9.4\",\n            \"AppBuild\": \"1\",\n            \"DeviceId\": \"RZ8M928NV8D\",\n            \"DeviceModel\": \"SM-A307FN\",\n            \"DeviceManufacturer\": \"samsung\",\n            \"DeviceName\": \"SM-A307FN\",\n            \"Version\": \"9\",\n            \"VersionNumber\": \"0.0\",\n            \"IsDevice\": true\n        }\n    },\n    \"PLWHouseholdMembers\": null,\n    \"CMCHousehold\": null\n}"}
 ****************************************************************************************************************************
||            Date: 2020-05-06   Time : 15:23:50
 ****************************************************************************************************************************

Object reference not set to an instance of an object. 
 
 

 ****************************************************************************************************************************
||            Date: 2020-05-06   Time : 15:29:30
 ****************************************************************************************************************************
{"HouseholdProfileInfo":"{\n    \"PDSHousehold\": null,\n    \"PDSHouseholdMembers\": null,\n    \"PLWHousehold\": {\n        \"ProfileDSHeaderID\": \"f2110c19-e41a-4362-b747-10874f5d7068\",\n        \"ProfileDSDetailID\": \"fd109761-dadf-4ca1-8354-d2cb7fab7ae2\",\n        \"HouseHold\": \"PLW\",\n        \"KebeleID\": 1025,\n        \"Gote\": \"gote\",\n        \"Gare\": \"gare\",\n        \"CollectionDate\": \"2020-05-06T15:13:38.34612\",\n        \"SocialWorker\": \"Admin\",\n        \"CCCCBSPCMember\": \"ccc\",\n        \"PLW\": \"P\",\n        \"NameOfPLW\": \"plw p\",\n        \"HouseHoldIDNumber\": \"psnp\",\n        \"MedicalRecordNumber\": \"id\",\n        \"PLWAge\": 38,\n        \"NutritionalStatusPLW\": \"N\",\n        \"StartDateTDS\": \"2009-01-01T00:00:00\",\n        \"EndDateTDS\": \"2009-01-01T00:00:00\",\n        \"Remarks\": \"rmk\",\n        \"ChildProtectionRisk\": \"NO\",\n        \"CBHIMembership\": \"YES\",\n        \"CBHINumber\": \"cbhi\",\n        \"CreatedBy\": \"Admin\",\n        \"CreatedOn\": \"2020-05-06T15:13:38.347928\",\n        \"UserDevice\": {\n            \"DataId\": \"f2110c19-e41a-4362-b747-10874f5d7068\",\n            \"ModuleName\": \"Household Profile\",\n            \"AppVersion\": \"3.9.4\",\n            \"AppBuild\": \"1\",\n            \"DeviceId\": \"RZ8M928NV8D\",\n            \"DeviceModel\": \"SM-A307FN\",\n            \"DeviceManufacturer\": \"samsung\",\n            \"DeviceName\": \"SM-A307FN\",\n            \"Version\": \"9\",\n            \"VersionNumber\": \"0.0\",\n            \"IsDevice\": true\n        }\n    },\n    \"PLWHouseholdMembers\": null,\n    \"CMCHousehold\": null\n}"}
 ****************************************************************************************************************************
||            Date: 2020-05-06   Time : 15:30:25
 ****************************************************************************************************************************
{"HouseholdProfileInfo":"{\n    \"PDSHousehold\": null,\n    \"PDSHouseholdMembers\": null,\n    \"PLWHousehold\": {\n        \"ProfileDSHeaderID\": \"f2110c19-e41a-4362-b747-10874f5d7068\",\n        \"ProfileDSDetailID\": \"fd109761-dadf-4ca1-8354-d2cb7fab7ae2\",\n        \"HouseHold\": \"PLW\",\n        \"KebeleID\": 1025,\n        \"Gote\": \"gote\",\n        \"Gare\": \"gare\",\n        \"CollectionDate\": \"2020-05-06T15:13:38.34612\",\n        \"SocialWorker\": \"Admin\",\n        \"CCCCBSPCMember\": \"ccc\",\n        \"PLW\": \"P\",\n        \"NameOfPLW\": \"plw p\",\n        \"HouseHoldIDNumber\": \"psnp\",\n        \"MedicalRecordNumber\": \"id\",\n        \"PLWAge\": 38,\n        \"NutritionalStatusPLW\": \"N\",\n        \"StartDateTDS\": \"2009-01-01T00:00:00\",\n        \"EndDateTDS\": \"2009-01-01T00:00:00\",\n        \"Remarks\": \"rmk\",\n        \"ChildProtectionRisk\": \"NO\",\n        \"CBHIMembership\": \"YES\",\n        \"CBHINumber\": \"cbhi\",\n        \"CreatedBy\": \"Admin\",\n        \"CreatedOn\": \"2020-05-06T15:13:38.347928\",\n        \"UserDevice\": {\n            \"DataId\": \"f2110c19-e41a-4362-b747-10874f5d7068\",\n            \"ModuleName\": \"Household Profile\",\n            \"AppVersion\": \"3.9.4\",\n            \"AppBuild\": \"1\",\n            \"DeviceId\": \"RZ8M928NV8D\",\n            \"DeviceModel\": \"SM-A307FN\",\n            \"DeviceManufacturer\": \"samsung\",\n            \"DeviceName\": \"SM-A307FN\",\n            \"Version\": \"9\",\n            \"VersionNumber\": \"0.0\",\n            \"IsDevice\": true\n        }\n    },\n    \"PLWHouseholdMembers\": null,\n    \"CMCHousehold\": null\n}"}
 ****************************************************************************************************************************
||            Date: 2020-05-06   Time : 15:30:26
 ****************************************************************************************************************************

Violation of PRIMARY KEY constraint 'PK_ProfileTDSPLW'. Cannot insert duplicate key in object 'dbo.P 
 
 

 ****************************************************************************************************************************
