||            Date: 2020-04-30   Time : 12:15:10
 ****************************************************************************************************************************
 api/Monitoring/PostHouseholdsReadyForMonitoring/ 
 {"MonitoringInfo":"{\"IndividualProfileID\":\"34399fc0-3f2f-4389-b639-97f118b585e8\",\"KebeleID\":1020,\"ReportingPeriodID\":49,\"CompletedDate\":\"2020-04-30T12:02:09.111086\",\"NonComplianceReason\":1,\"ActionResponse\":1,\"HouseholdType\":\"PDS1\",\"SocialWorker\":\"Admin\",\"CreatedById\":1,\"UserDevice\":{\"DataId\":\"00000000-0000-0000-0000-000000000000\",\"ModuleName\":\"Monitoring\",\"AppVersion\":\"3.9.4\",\"AppBuild\":\"1\",\"DeviceId\":\"RZ8M928NV8D\",\"DeviceModel\":\"SM-A307FN\",\"DeviceManufacturer\":\"samsung\",\"DeviceName\":\"SM-A307FN\",\"Version\":\"9\",\"VersionNumber\":\"0.0\",\"IsDevice\":true}}"}
 ****************************************************************************************************************************
||            Date: 2020-04-30   Time : 12:18:34
 ****************************************************************************************************************************
 api/Monitoring/PostHouseholdsReadyForMonitoring/ 
 {"MonitoringInfo":"{\n    \"IndividualProfileID\": \"34399fc0-3f2f-4389-b639-97f118b585e8\",\n    \"KebeleID\": 1020,\n    \"ReportingPeriodID\": 49,\n    \"CompletedDate\": \"2020-04-30T12:02:09.111086\",\n    \"NonComplianceReason\": 1,\n    \"ActionResponse\": 2,\n    \"HouseholdType\": \"PDS1\",\n    \"SocialWorker\": \"Admin\",\n    \"CreatedById\": 1,\n    \"UserDevice\": {\n        \"DataId\": \"00000000-0000-0000-0000-000000000000\",\n        \"ModuleName\": \"Monitoring\",\n        \"AppVersion\": \"3.9.4\",\n        \"AppBuild\": \"1\",\n        \"DeviceId\": \"RZ8M928NV8D\",\n        \"DeviceModel\": \"SM-A307FN\",\n        \"DeviceManufacturer\": \"samsung\",\n        \"DeviceName\": \"SM-A307FN\",\n        \"Version\": \"9\",\n        \"VersionNumber\": \"0.0\",\n        \"IsDevice\": true\n    }\n}"}
 ****************************************************************************************************************************
||            Date: 2020-04-30   Time : 12:28:48
 ****************************************************************************************************************************
 api/Monitoring/PostHouseholdsReadyForMonitoring/ 
 {"MonitoringInfo":"{\n    \"IndividualProfileID\": \"34399fc0-3f2f-4389-b639-97f118b585e8\",\n    \"KebeleID\": 1020,\n    \"ReportingPeriodID\": 49,\n    \"CompletedDate\": \"2020-04-30T12:02:09.111086\",\n    \"NonComplianceReason\": 1,\n    \"ActionResponse\": 3,\n    \"HouseholdType\": \"PDS1\",\n    \"SocialWorker\": \"Admin\",\n    \"CreatedById\": 1,\n    \"UserDevice\": {\n        \"DataId\": \"00000000-0000-0000-0000-000000000000\",\n        \"ModuleName\": \"Monitoring\",\n        \"AppVersion\": \"3.9.4\",\n        \"AppBuild\": \"1\",\n        \"DeviceId\": \"RZ8M928NV8D\",\n        \"DeviceModel\": \"SM-A307FN\",\n        \"DeviceManufacturer\": \"samsung\",\n        \"DeviceName\": \"SM-A307FN\",\n        \"Version\": \"9\",\n        \"VersionNumber\": \"0.0\",\n        \"IsDevice\": true\n    }\n}"}
 ****************************************************************************************************************************
||            Date: 2020-04-30   Time : 12:30:06
 ****************************************************************************************************************************
 api/Monitoring/PostHouseholdsReadyForMonitoring/ 
 {"MonitoringInfo":"{\n    \"IndividualProfileID\": \"34399fc0-3f2f-4389-b639-97f118b585e8\",\n    \"KebeleID\": 1020,\n    \"ReportingPeriodID\": 49,\n    \"CompletedDate\": \"2020-04-30T12:02:09.111086\",\n    \"NonComplianceReason\": 1,\n    \"ActionResponse\": 3,\n    \"HouseholdType\": \"PDS1\",\n    \"SocialWorker\": \"Admin\",\n    \"CreatedById\": 1,\n    \"UserDevice\": {\n        \"DataId\": \"00000000-0000-0000-0000-000000000000\",\n        \"ModuleName\": \"Monitoring\",\n        \"AppVersion\": \"3.9.4\",\n        \"AppBuild\": \"1\",\n        \"DeviceId\": \"RZ8M928NV8D\",\n        \"DeviceModel\": \"SM-A307FN\",\n        \"DeviceManufacturer\": \"samsung\",\n        \"DeviceName\": \"SM-A307FN\",\n        \"Version\": \"9\",\n        \"VersionNumber\": \"0.0\",\n        \"IsDevice\": true\n    }\n}"}
 ****************************************************************************************************************************
||            Date: 2020-04-30   Time : 12:30:28
 ****************************************************************************************************************************
 api/Monitoring/PostHouseholdsReadyForMonitoring/ 
 {"MonitoringInfo":"{\n    \"IndividualProfileID\": \"34399fc0-3f2f-4389-b639-97f118b585e8\",\n    \"KebeleID\": 1020,\n    \"ReportingPeriodID\": 49,\n    \"CompletedDate\": \"2020-04-30T12:02:09.111086\",\n    \"NonComplianceReason\": 1,\n    \"ActionResponse\": 3,\n    \"HouseholdType\": \"PDS1\",\n    \"SocialWorker\": \"Admin\",\n    \"CreatedById\": 1,\n    \"UserDevice\": {\n        \"DataId\": \"00000000-0000-0000-0000-000000000000\",\n        \"ModuleName\": \"Monitoring\",\n        \"AppVersion\": \"3.9.4\",\n        \"AppBuild\": \"1\",\n        \"DeviceId\": \"RZ8M928NV8D\",\n        \"DeviceModel\": \"SM-A307FN\",\n        \"DeviceManufacturer\": \"samsung\",\n        \"DeviceName\": \"SM-A307FN\",\n        \"Version\": \"9\",\n        \"VersionNumber\": \"0.0\",\n        \"IsDevice\": true\n    }\n}"}
 ****************************************************************************************************************************
||            Date: 2020-04-30   Time : 12:31:16
 ****************************************************************************************************************************
 api/Monitoring/PostHouseholdsReadyForMonitoring/ 
 {"MonitoringInfo":"{\n    \"IndividualProfileID\": \"34399fc0-3f2f-4389-b639-97f118b585e8\",\n    \"KebeleID\": 1020,\n    \"ReportingPeriodID\": 49,\n    \"CompletedDate\": \"2020-04-30T12:02:09.111086\",\n    \"NonComplianceReason\": 1,\n    \"ActionResponse\": 3,\n    \"HouseholdType\": \"PDS1\",\n    \"SocialWorker\": \"Admin\",\n    \"CreatedById\": 1,\n    \"UserDevice\": {\n        \"DataId\": \"00000000-0000-0000-0000-000000000000\",\n        \"ModuleName\": \"Monitoring\",\n        \"AppVersion\": \"3.9.4\",\n        \"AppBuild\": \"1\",\n        \"DeviceId\": \"RZ8M928NV8D\",\n        \"DeviceModel\": \"SM-A307FN\",\n        \"DeviceManufacturer\": \"samsung\",\n        \"DeviceName\": \"SM-A307FN\",\n        \"Version\": \"9\",\n        \"VersionNumber\": \"0.0\",\n        \"IsDevice\": true\n    }\n}"}
 ****************************************************************************************************************************
||            Date: 2020-04-30   Time : 12:47:52
 ****************************************************************************************************************************
 api/Monitoring/PostHouseholdsReadyForMonitoring/ 
 {"MonitoringInfo":"{\n    \"IndividualProfileID\": \"34399fc0-3f2f-4389-b639-97f118b585e8\",\n    \"KebeleID\": 1020,\n    \"ReportingPeriodID\": 49,\n    \"CompletedDate\": \"2020-04-30T12:02:09.111086\",\n    \"NonComplianceReason\": 1,\n    \"ActionResponse\": 3,\n    \"HouseholdType\": \"PDS1\",\n    \"SocialWorker\": \"Admin\",\n    \"CreatedById\": 1,\n    \"UserDevice\": {\n        \"DataId\": \"00000000-0000-0000-0000-000000000000\",\n        \"ModuleName\": \"Monitoring\",\n        \"AppVersion\": \"3.9.4\",\n        \"AppBuild\": \"1\",\n        \"DeviceId\": \"RZ8M928NV8D\",\n        \"DeviceModel\": \"SM-A307FN\",\n        \"DeviceManufacturer\": \"samsung\",\n        \"DeviceName\": \"SM-A307FN\",\n        \"Version\": \"9\",\n        \"VersionNumber\": \"0.0\",\n        \"IsDevice\": true\n    }\n}"}
 ****************************************************************************************************************************
||            Date: 2020-04-30   Time : 13:42:36
 ****************************************************************************************************************************
 api/Monitoring/PostHouseholdsReadyForMonitoring/ 
 {"MonitoringInfo":"{\"IndividualProfileID\":\"f754fd6f-4847-4732-a127-fdaa0664d753\",\"KebeleID\":1020,\"ReportingPeriodID\":49,\"CompletedDate\":\"2020-04-30T13:39:40.082741\",\"NonComplianceReason\":29,\"ActionResponse\":29,\"HouseholdType\":\"CMC\",\"SocialWorker\":\"Admin\",\"CreatedById\":1,\"UserDevice\":{\"DataId\":\"00000000-0000-0000-0000-000000000000\",\"ModuleName\":\"Monitoring\",\"AppVersion\":\"3.9.4\",\"AppBuild\":\"1\",\"DeviceId\":\"RZ8M928NV8D\",\"DeviceModel\":\"SM-A307FN\",\"DeviceManufacturer\":\"samsung\",\"DeviceName\":\"SM-A307FN\",\"Version\":\"9\",\"VersionNumber\":\"0.0\",\"IsDevice\":true}}"}
 ****************************************************************************************************************************
||            Date: 2020-04-30   Time : 15:32:24
 ****************************************************************************************************************************
 api/Retargeting/PostHouseholdsReadyForRetargeting/ 
 {"RetargetingInfo":null}
 ****************************************************************************************************************************
||            Date: 2020-04-30   Time : 15:32:24
 ****************************************************************************************************************************
 The RetargetingInfo field is required. - The Posted Data has been rejected
 ****************************************************************************************************************************
||            Date: 2020-04-30   Time : 15:32:34
 ****************************************************************************************************************************
 api/Retargeting/PostHouseholdsReadyForRetargeting/ 
 {"RetargetingInfo":"{\"RetargetingDetailID\":\"9588BAA1-F067-4409-9BB6-AE0A388A6A8A\",\"RetargetingHeaderID\":\"888AAD60-D78B-4D96-9829-EB123BE4D07B\",\"CCCMember\":\"CC111\",\"Status\":\"1\",\"Pregnant\":null,\"Lactating\":null,\"Handicapped\":\"NO\",\"ChronicallyIll\":\"NO\",\"NutritionalStatus\":\"N\",\"ChildUnderTSForCMAM\":\"YES\",\"EnrolledInSchool\":null,\"SchoolName\":null,\"Grade\":null,\"SocialWorker\":\"Admin\",\"DateUpdated\":\"0001-01-01T00:00:00\",\"IsUpdated\":true,\"CreatedBy\":1,\"UserDevice\":{\"DataId\":\"9588baa1-f067-4409-9bb6-ae0a388a6a8a\",\"ModuleName\":\"Retargeting\",\"AppVersion\":\"3.9.4\",\"AppBuild\":\"1\",\"DeviceId\":\"RZ8M928NV8D\",\"DeviceModel\":\"SM-A307FN\",\"DeviceManufacturer\":\"samsung\",\"DeviceName\":\"SM-A307FN\",\"Version\":\"9\",\"VersionNumber\":\"0.0\",\"IsDevice\":true}}"}
 ****************************************************************************************************************************
||            Date: 2020-04-30   Time : 15:32:34
 ****************************************************************************************************************************

SqlDateTime overflow. Must be between 1/1/1753 12:00:00 AM and 12/31/9999 11:59:59 PM. 
 
 

 ****************************************************************************************************************************
||            Date: 2020-04-30   Time : 15:32:35
 ****************************************************************************************************************************
Error Uploading Retargeting Data
:- System.Data.SqlTypes.SqlTypeException: SqlDateTime overflow. Must be between 1/1/1753 12:00:00 AM and 12/31/9999 11:59:59 PM.
   at System.Data.SqlClient.TdsParser.TdsExecuteRPC(SqlCommand cmd, _SqlRPC[] rpcArray, Int32 timeout, Boolean inSchema, SqlNotificationRequest notificationRequest, TdsParserStateObject stateObj, Boolean isCommandProc, Boolean sync, TaskCompletionSource`1 completion, Int32 startRpc, Int32 startParam)
   at System.Data.SqlClient.SqlCommand.RunExecuteReaderTds(CommandBehavior cmdBehavior, RunBehavior runBehavior, Boolean returnStream, Boolean async, Int32 timeout, Task& task, Boolean asyncWrite, Boolean inRetry, SqlDataReader ds, Boolean describeParameterEncryptionRequest)
   at System.Data.SqlClient.SqlCommand.RunExecuteReader(CommandBehavior cmdBehavior, RunBehavior runBehavior, Boolean returnStream, String method, TaskCompletionSource`1 completion, Int32 timeout, Task& task, Boolean& usedCache, Boolean asyncWrite, Boolean inRetry)
   at System.Data.SqlClient.SqlCommand.RunExecuteReader(CommandBehavior cmdBehavior, RunBehavior runBehavior, Boolean returnStream, String method)
   at System.Data.SqlClient.SqlCommand.ExecuteReader(CommandBehavior behavior, String method)
   at System.Data.SqlClient.SqlCommand.ExecuteDbDataReader(CommandBehavior behavior)
   at System.Data.Common.DbCommand.ExecuteReader(CommandBehavior behavior)
   at System.Data.Entity.Infrastructure.Interception.DbCommandDispatcher.<Reader>b__c(DbCommand t, DbCommandInterceptionContext`1 c)
   at System.Data.Entity.Infrastructure.Interception.InternalDispatcher`1.Dispatch[TTarget,TInterceptionContext,TResult](TTarget target, Func`3 operation, TInterceptionContext interceptionContext, Action`3 executing, Action`3 executed)
   at System.Data.Entity.Infrastructure.Interception.DbCommandDispatcher.Reader(DbCommand command, DbCommandInterceptionContext interceptionContext)
   at System.Data.Entity.Internal.InterceptableDbCommand.ExecuteDbDataReader(CommandBehavior behavior)
   at System.Data.Common.DbCommand.ExecuteReader(CommandBehavior behavior)
   at System.Data.Entity.Core.Objects.ObjectContext.ExecuteStoreQueryInternal[TElement](String commandText, String entitySetName, ExecutionOptions executionOptions, Object[] parameters)
   at System.Data.Entity.Core.Objects.ObjectContext.<>c__DisplayClass69`1.<ExecuteStoreQueryReliably>b__68()
   at System.Data.Entity.Core.Objects.ObjectContext.ExecuteInTransaction[T](Func`1 func, IDbExecutionStrategy executionStrategy, Boolean startLocalTransaction, Boolean releaseConnectionOnSuccess)
   at System.Data.Entity.Core.Objects.ObjectContext.<>c__DisplayClass69`1.<ExecuteStoreQueryReliably>b__67()
   at System.Data.Entity.SqlServer.DefaultSqlExecutionStrategy.Execute[TResult](Func`1 operation)
   at System.Data.Entity.Core.Objects.ObjectContext.ExecuteStoreQueryReliably[TElement](String commandText, String entitySetName, ExecutionOptions executionOptions, Object[] parameters)
   at System.Data.Entity.Core.Objects.ObjectContext.ExecuteStoreQuery[TElement](String commandText, ExecutionOptions executionOptions, Object[] parameters)
   at System.Data.Entity.Internal.InternalContext.<>c__DisplayClass14`1.<ExecuteSqlQuery>b__13()
   at System.Data.Entity.Internal.LazyEnumerator`1.MoveNext()
   at System.Collections.Generic.List`1..ctor(IEnumerable`1 collection)
   at System.Linq.Enumerable.ToList[TSource](IEnumerable`1 source)
   at INSCTMIS.Custom.Api.Data.GenericRepository`1.GetManyBySp[TEntity](String procName, String parameterNames, List`1 parameterValues) in C:\PROJECTS\IN-SCT MIS\api v1.0.0\INSCT-API\Data\Class1.cs:line 308
   at INSCTMIS.Custom.Api.Helpers.GenericService.GetManyBySp[TEntity](String procName, String parameterNames, List`1 parameterValues) in C:\PROJECTS\IN-SCT MIS\api v1.0.0\INSCT-API\Helpers\Class1.cs:line 276
   at INSCTMIS.Api.Controllers.RetargetingController.PostHouseholdsReadyForRetargeting(TabletRetargetingViewModel model) in C:\PROJECTS\IN-SCT MIS\api v1.0.0\INSCT-API\Controllers\RetargetingController.cs:line 118System.Data.SqlTypes.SqlTypeException: SqlDateTime overflow. Must be between 1/1/1753 12:00:00 AM and 12/31/9999 11:59:59 PM.
   at System.Data.SqlClient.TdsParser.TdsExecuteRPC(SqlCommand cmd, _SqlRPC[] rpcArray, Int32 timeout, Boolean inSchema, SqlNotificationRequest notificationRequest, TdsParserStateObject stateObj, Boolean isCommandProc, Boolean sync, TaskCompletionSource`1 completion, Int32 startRpc, Int32 startParam)
   at System.Data.SqlClient.SqlCommand.RunExecuteReaderTds(CommandBehavior cmdBehavior, RunBehavior runBehavior, Boolean returnStream, Boolean async, Int32 timeout, Task& task, Boolean asyncWrite, Boolean inRetry, SqlDataReader ds, Boolean describeParameterEncryptionRequest)
   at System.Data.SqlClient.SqlCommand.RunExecuteReader(CommandBehavior cmdBehavior, RunBehavior runBehavior, Boolean returnStream, String method, TaskCompletionSource`1 completion, Int32 timeout, Task& task, Boolean& usedCache, Boolean asyncWrite, Boolean inRetry)
   at System.Data.SqlClient.SqlCommand.RunExecuteReader(CommandBehavior cmdBehavior, RunBehavior runBehavior, Boolean returnStream, String method)
   at System.Data.SqlClient.SqlCommand.ExecuteReader(CommandBehavior behavior, String method)
   at System.Data.SqlClient.SqlCommand.ExecuteDbDataReader(CommandBehavior behavior)
   at System.Data.Common.DbCommand.ExecuteReader(CommandBehavior behavior)
   at System.Data.Entity.Infrastructure.Interception.DbCommandDispatcher.<Reader>b__c(DbCommand t, DbCommandInterceptionContext`1 c)
   at System.Data.Entity.Infrastructure.Interception.InternalDispatcher`1.Dispatch[TTarget,TInterceptionContext,TResult](TTarget target, Func`3 operation, TInterceptionContext interceptionContext, Action`3 executing, Action`3 executed)
   at System.Data.Entity.Infrastructure.Interception.DbCommandDispatcher.Reader(DbCommand command, DbCommandInterceptionContext interceptionContext)
   at System.Data.Entity.Internal.InterceptableDbCommand.ExecuteDbDataReader(CommandBehavior behavior)
   at System.Data.Common.DbCommand.ExecuteReader(CommandBehavior behavior)
   at System.Data.Entity.Core.Objects.ObjectContext.ExecuteStoreQueryInternal[TElement](String commandText, String entitySetName, ExecutionOptions executionOptions, Object[] parameters)
   at System.Data.Entity.Core.Objects.ObjectContext.<>c__DisplayClass69`1.<ExecuteStoreQueryReliably>b__68()
   at System.Data.Entity.Core.Objects.ObjectContext.ExecuteInTransaction[T](Func`1 func, IDbExecutionStrategy executionStrategy, Boolean startLocalTransaction, Boolean releaseConnectionOnSuccess)
   at System.Data.Entity.Core.Objects.ObjectContext.<>c__DisplayClass69`1.<ExecuteStoreQueryReliably>b__67()
   at System.Data.Entity.SqlServer.DefaultSqlExecutionStrategy.Execute[TResult](Func`1 operation)
   at System.Data.Entity.Core.Objects.ObjectContext.ExecuteStoreQueryReliably[TElement](String commandText, String entitySetName, ExecutionOptions executionOptions, Object[] parameters)
   at System.Data.Entity.Core.Objects.ObjectContext.ExecuteStoreQuery[TElement](String commandText, ExecutionOptions executionOptions, Object[] parameters)
   at System.Data.Entity.Internal.InternalContext.<>c__DisplayClass14`1.<ExecuteSqlQuery>b__13()
   at System.Data.Entity.Internal.LazyEnumerator`1.MoveNext()
   at System.Collections.Generic.List`1..ctor(IEnumerable`1 collection)
   at System.Linq.Enumerable.ToList[TSource](IEnumerable`1 source)
   at INSCTMIS.Custom.Api.Data.GenericRepository`1.GetManyBySp[TEntity](String procName, String parameterNames, List`1 parameterValues) in C:\PROJECTS\IN-SCT MIS\api v1.0.0\INSCT-API\Data\Class1.cs:line 308
   at INSCTMIS.Custom.Api.Helpers.GenericService.GetManyBySp[TEntity](String procName, String parameterNames, List`1 parameterValues) in C:\PROJECTS\IN-SCT MIS\api v1.0.0\INSCT-API\Helpers\Class1.cs:line 276
   at INSCTMIS.Api.Controllers.RetargetingController.PostHouseholdsReadyForRetargeting(TabletRetargetingViewModel model) in C:\PROJECTS\IN-SCT MIS\api v1.0.0\INSCT-API\Controllers\RetargetingController.cs:line 118
 ****************************************************************************************************************************
||            Date: 2020-04-30   Time : 15:33:02
 ****************************************************************************************************************************
 api/Retargeting/PostHouseholdsReadyForRetargeting/ 
 {"RetargetingInfo":"{\"RetargetingDetailID\":\"9588BAA1-F067-4409-9BB6-AE0A388A6A8A\",\"RetargetingHeaderID\":\"888AAD60-D78B-4D96-9829-EB123BE4D07B\",\"CCCMember\":\"CC111\",\"Status\":\"1\",\"Pregnant\":null,\"Lactating\":null,\"Handicapped\":\"NO\",\"ChronicallyIll\":\"NO\",\"NutritionalStatus\":\"N\",\"ChildUnderTSForCMAM\":\"YES\",\"EnrolledInSchool\":null,\"SchoolName\":null,\"Grade\":null,\"SocialWorker\":\"Admin\",\"DateUpdated\":\"0001-01-01T00:00:00\",\"IsUpdated\":true,\"CreatedBy\":1,\"UserDevice\":{\"DataId\":\"9588baa1-f067-4409-9bb6-ae0a388a6a8a\",\"ModuleName\":\"Retargeting\",\"AppVersion\":\"3.9.4\",\"AppBuild\":\"1\",\"DeviceId\":\"RZ8M928NV8D\",\"DeviceModel\":\"SM-A307FN\",\"DeviceManufacturer\":\"samsung\",\"DeviceName\":\"SM-A307FN\",\"Version\":\"9\",\"VersionNumber\":\"0.0\",\"IsDevice\":true}}"}
 ****************************************************************************************************************************
||            Date: 2020-04-30   Time : 15:33:02
 ****************************************************************************************************************************

SqlDateTime overflow. Must be between 1/1/1753 12:00:00 AM and 12/31/9999 11:59:59 PM. 
 
 

 ****************************************************************************************************************************
||            Date: 2020-04-30   Time : 15:33:02
 ****************************************************************************************************************************
Error Uploading Retargeting Data
:- System.Data.SqlTypes.SqlTypeException: SqlDateTime overflow. Must be between 1/1/1753 12:00:00 AM and 12/31/9999 11:59:59 PM.
   at System.Data.SqlClient.TdsParser.TdsExecuteRPC(SqlCommand cmd, _SqlRPC[] rpcArray, Int32 timeout, Boolean inSchema, SqlNotificationRequest notificationRequest, TdsParserStateObject stateObj, Boolean isCommandProc, Boolean sync, TaskCompletionSource`1 completion, Int32 startRpc, Int32 startParam)
   at System.Data.SqlClient.SqlCommand.RunExecuteReaderTds(CommandBehavior cmdBehavior, RunBehavior runBehavior, Boolean returnStream, Boolean async, Int32 timeout, Task& task, Boolean asyncWrite, Boolean inRetry, SqlDataReader ds, Boolean describeParameterEncryptionRequest)
   at System.Data.SqlClient.SqlCommand.RunExecuteReader(CommandBehavior cmdBehavior, RunBehavior runBehavior, Boolean returnStream, String method, TaskCompletionSource`1 completion, Int32 timeout, Task& task, Boolean& usedCache, Boolean asyncWrite, Boolean inRetry)
   at System.Data.SqlClient.SqlCommand.RunExecuteReader(CommandBehavior cmdBehavior, RunBehavior runBehavior, Boolean returnStream, String method)
   at System.Data.SqlClient.SqlCommand.ExecuteReader(CommandBehavior behavior, String method)
   at System.Data.SqlClient.SqlCommand.ExecuteDbDataReader(CommandBehavior behavior)
   at System.Data.Common.DbCommand.ExecuteReader(CommandBehavior behavior)
   at System.Data.Entity.Infrastructure.Interception.DbCommandDispatcher.<Reader>b__c(DbCommand t, DbCommandInterceptionContext`1 c)
   at System.Data.Entity.Infrastructure.Interception.InternalDispatcher`1.Dispatch[TTarget,TInterceptionContext,TResult](TTarget target, Func`3 operation, TInterceptionContext interceptionContext, Action`3 executing, Action`3 executed)
   at System.Data.Entity.Infrastructure.Interception.DbCommandDispatcher.Reader(DbCommand command, DbCommandInterceptionContext interceptionContext)
   at System.Data.Entity.Internal.InterceptableDbCommand.ExecuteDbDataReader(CommandBehavior behavior)
   at System.Data.Common.DbCommand.ExecuteReader(CommandBehavior behavior)
   at System.Data.Entity.Core.Objects.ObjectContext.ExecuteStoreQueryInternal[TElement](String commandText, String entitySetName, ExecutionOptions executionOptions, Object[] parameters)
   at System.Data.Entity.Core.Objects.ObjectContext.<>c__DisplayClass69`1.<ExecuteStoreQueryReliably>b__68()
   at System.Data.Entity.Core.Objects.ObjectContext.ExecuteInTransaction[T](Func`1 func, IDbExecutionStrategy executionStrategy, Boolean startLocalTransaction, Boolean releaseConnectionOnSuccess)
   at System.Data.Entity.Core.Objects.ObjectContext.<>c__DisplayClass69`1.<ExecuteStoreQueryReliably>b__67()
   at System.Data.Entity.SqlServer.DefaultSqlExecutionStrategy.Execute[TResult](Func`1 operation)
   at System.Data.Entity.Core.Objects.ObjectContext.ExecuteStoreQueryReliably[TElement](String commandText, String entitySetName, ExecutionOptions executionOptions, Object[] parameters)
   at System.Data.Entity.Core.Objects.ObjectContext.ExecuteStoreQuery[TElement](String commandText, ExecutionOptions executionOptions, Object[] parameters)
   at System.Data.Entity.Internal.InternalContext.<>c__DisplayClass14`1.<ExecuteSqlQuery>b__13()
   at System.Data.Entity.Internal.LazyEnumerator`1.MoveNext()
   at System.Collections.Generic.List`1..ctor(IEnumerable`1 collection)
   at System.Linq.Enumerable.ToList[TSource](IEnumerable`1 source)
   at INSCTMIS.Custom.Api.Data.GenericRepository`1.GetManyBySp[TEntity](String procName, String parameterNames, List`1 parameterValues) in C:\PROJECTS\IN-SCT MIS\api v1.0.0\INSCT-API\Data\Class1.cs:line 308
   at INSCTMIS.Custom.Api.Helpers.GenericService.GetManyBySp[TEntity](String procName, String parameterNames, List`1 parameterValues) in C:\PROJECTS\IN-SCT MIS\api v1.0.0\INSCT-API\Helpers\Class1.cs:line 276
   at INSCTMIS.Api.Controllers.RetargetingController.PostHouseholdsReadyForRetargeting(TabletRetargetingViewModel model) in C:\PROJECTS\IN-SCT MIS\api v1.0.0\INSCT-API\Controllers\RetargetingController.cs:line 118System.Data.SqlTypes.SqlTypeException: SqlDateTime overflow. Must be between 1/1/1753 12:00:00 AM and 12/31/9999 11:59:59 PM.
   at System.Data.SqlClient.TdsParser.TdsExecuteRPC(SqlCommand cmd, _SqlRPC[] rpcArray, Int32 timeout, Boolean inSchema, SqlNotificationRequest notificationRequest, TdsParserStateObject stateObj, Boolean isCommandProc, Boolean sync, TaskCompletionSource`1 completion, Int32 startRpc, Int32 startParam)
   at System.Data.SqlClient.SqlCommand.RunExecuteReaderTds(CommandBehavior cmdBehavior, RunBehavior runBehavior, Boolean returnStream, Boolean async, Int32 timeout, Task& task, Boolean asyncWrite, Boolean inRetry, SqlDataReader ds, Boolean describeParameterEncryptionRequest)
   at System.Data.SqlClient.SqlCommand.RunExecuteReader(CommandBehavior cmdBehavior, RunBehavior runBehavior, Boolean returnStream, String method, TaskCompletionSource`1 completion, Int32 timeout, Task& task, Boolean& usedCache, Boolean asyncWrite, Boolean inRetry)
   at System.Data.SqlClient.SqlCommand.RunExecuteReader(CommandBehavior cmdBehavior, RunBehavior runBehavior, Boolean returnStream, String method)
   at System.Data.SqlClient.SqlCommand.ExecuteReader(CommandBehavior behavior, String method)
   at System.Data.SqlClient.SqlCommand.ExecuteDbDataReader(CommandBehavior behavior)
   at System.Data.Common.DbCommand.ExecuteReader(CommandBehavior behavior)
   at System.Data.Entity.Infrastructure.Interception.DbCommandDispatcher.<Reader>b__c(DbCommand t, DbCommandInterceptionContext`1 c)
   at System.Data.Entity.Infrastructure.Interception.InternalDispatcher`1.Dispatch[TTarget,TInterceptionContext,TResult](TTarget target, Func`3 operation, TInterceptionContext interceptionContext, Action`3 executing, Action`3 executed)
   at System.Data.Entity.Infrastructure.Interception.DbCommandDispatcher.Reader(DbCommand command, DbCommandInterceptionContext interceptionContext)
   at System.Data.Entity.Internal.InterceptableDbCommand.ExecuteDbDataReader(CommandBehavior behavior)
   at System.Data.Common.DbCommand.ExecuteReader(CommandBehavior behavior)
   at System.Data.Entity.Core.Objects.ObjectContext.ExecuteStoreQueryInternal[TElement](String commandText, String entitySetName, ExecutionOptions executionOptions, Object[] parameters)
   at System.Data.Entity.Core.Objects.ObjectContext.<>c__DisplayClass69`1.<ExecuteStoreQueryReliably>b__68()
   at System.Data.Entity.Core.Objects.ObjectContext.ExecuteInTransaction[T](Func`1 func, IDbExecutionStrategy executionStrategy, Boolean startLocalTransaction, Boolean releaseConnectionOnSuccess)
   at System.Data.Entity.Core.Objects.ObjectContext.<>c__DisplayClass69`1.<ExecuteStoreQueryReliably>b__67()
   at System.Data.Entity.SqlServer.DefaultSqlExecutionStrategy.Execute[TResult](Func`1 operation)
   at System.Data.Entity.Core.Objects.ObjectContext.ExecuteStoreQueryReliably[TElement](String commandText, String entitySetName, ExecutionOptions executionOptions, Object[] parameters)
   at System.Data.Entity.Core.Objects.ObjectContext.ExecuteStoreQuery[TElement](String commandText, ExecutionOptions executionOptions, Object[] parameters)
   at System.Data.Entity.Internal.InternalContext.<>c__DisplayClass14`1.<ExecuteSqlQuery>b__13()
   at System.Data.Entity.Internal.LazyEnumerator`1.MoveNext()
   at System.Collections.Generic.List`1..ctor(IEnumerable`1 collection)
   at System.Linq.Enumerable.ToList[TSource](IEnumerable`1 source)
   at INSCTMIS.Custom.Api.Data.GenericRepository`1.GetManyBySp[TEntity](String procName, String parameterNames, List`1 parameterValues) in C:\PROJECTS\IN-SCT MIS\api v1.0.0\INSCT-API\Data\Class1.cs:line 308
   at INSCTMIS.Custom.Api.Helpers.GenericService.GetManyBySp[TEntity](String procName, String parameterNames, List`1 parameterValues) in C:\PROJECTS\IN-SCT MIS\api v1.0.0\INSCT-API\Helpers\Class1.cs:line 276
   at INSCTMIS.Api.Controllers.RetargetingController.PostHouseholdsReadyForRetargeting(TabletRetargetingViewModel model) in C:\PROJECTS\IN-SCT MIS\api v1.0.0\INSCT-API\Controllers\RetargetingController.cs:line 118
 ****************************************************************************************************************************
||            Date: 2020-04-30   Time : 15:33:25
 ****************************************************************************************************************************
 api/Retargeting/PostHouseholdsReadyForRetargeting/ 
 {"RetargetingInfo":"{\"RetargetingDetailID\":\"9588BAA1-F067-4409-9BB6-AE0A388A6A8A\",\"RetargetingHeaderID\":\"888AAD60-D78B-4D96-9829-EB123BE4D07B\",\"CCCMember\":\"CC111\",\"Status\":\"1\",\"Pregnant\":null,\"Lactating\":null,\"Handicapped\":\"NO\",\"ChronicallyIll\":\"NO\",\"NutritionalStatus\":\"N\",\"ChildUnderTSForCMAM\":\"YES\",\"EnrolledInSchool\":null,\"SchoolName\":null,\"Grade\":null,\"SocialWorker\":\"Admin\",\"DateUpdated\":\"0001-01-01T00:00:00\",\"IsUpdated\":true,\"CreatedBy\":1,\"UserDevice\":{\"DataId\":\"9588baa1-f067-4409-9bb6-ae0a388a6a8a\",\"ModuleName\":\"Retargeting\",\"AppVersion\":\"3.9.4\",\"AppBuild\":\"1\",\"DeviceId\":\"RZ8M928NV8D\",\"DeviceModel\":\"SM-A307FN\",\"DeviceManufacturer\":\"samsung\",\"DeviceName\":\"SM-A307FN\",\"Version\":\"9\",\"VersionNumber\":\"0.0\",\"IsDevice\":true}}"}
 ****************************************************************************************************************************
||            Date: 2020-04-30   Time : 15:33:25
 ****************************************************************************************************************************

SqlDateTime overflow. Must be between 1/1/1753 12:00:00 AM and 12/31/9999 11:59:59 PM. 
 
 

 ****************************************************************************************************************************
||            Date: 2020-04-30   Time : 15:33:25
 ****************************************************************************************************************************
Error Uploading Retargeting Data
:- System.Data.SqlTypes.SqlTypeException: SqlDateTime overflow. Must be between 1/1/1753 12:00:00 AM and 12/31/9999 11:59:59 PM.
   at System.Data.SqlClient.TdsParser.TdsExecuteRPC(SqlCommand cmd, _SqlRPC[] rpcArray, Int32 timeout, Boolean inSchema, SqlNotificationRequest notificationRequest, TdsParserStateObject stateObj, Boolean isCommandProc, Boolean sync, TaskCompletionSource`1 completion, Int32 startRpc, Int32 startParam)
   at System.Data.SqlClient.SqlCommand.RunExecuteReaderTds(CommandBehavior cmdBehavior, RunBehavior runBehavior, Boolean returnStream, Boolean async, Int32 timeout, Task& task, Boolean asyncWrite, Boolean inRetry, SqlDataReader ds, Boolean describeParameterEncryptionRequest)
   at System.Data.SqlClient.SqlCommand.RunExecuteReader(CommandBehavior cmdBehavior, RunBehavior runBehavior, Boolean returnStream, String method, TaskCompletionSource`1 completion, Int32 timeout, Task& task, Boolean& usedCache, Boolean asyncWrite, Boolean inRetry)
   at System.Data.SqlClient.SqlCommand.RunExecuteReader(CommandBehavior cmdBehavior, RunBehavior runBehavior, Boolean returnStream, String method)
   at System.Data.SqlClient.SqlCommand.ExecuteReader(CommandBehavior behavior, String method)
   at System.Data.SqlClient.SqlCommand.ExecuteDbDataReader(CommandBehavior behavior)
   at System.Data.Common.DbCommand.ExecuteReader(CommandBehavior behavior)
   at System.Data.Entity.Infrastructure.Interception.DbCommandDispatcher.<Reader>b__c(DbCommand t, DbCommandInterceptionContext`1 c)
   at System.Data.Entity.Infrastructure.Interception.InternalDispatcher`1.Dispatch[TTarget,TInterceptionContext,TResult](TTarget target, Func`3 operation, TInterceptionContext interceptionContext, Action`3 executing, Action`3 executed)
   at System.Data.Entity.Infrastructure.Interception.DbCommandDispatcher.Reader(DbCommand command, DbCommandInterceptionContext interceptionContext)
   at System.Data.Entity.Internal.InterceptableDbCommand.ExecuteDbDataReader(CommandBehavior behavior)
   at System.Data.Common.DbCommand.ExecuteReader(CommandBehavior behavior)
   at System.Data.Entity.Core.Objects.ObjectContext.ExecuteStoreQueryInternal[TElement](String commandText, String entitySetName, ExecutionOptions executionOptions, Object[] parameters)
   at System.Data.Entity.Core.Objects.ObjectContext.<>c__DisplayClass69`1.<ExecuteStoreQueryReliably>b__68()
   at System.Data.Entity.Core.Objects.ObjectContext.ExecuteInTransaction[T](Func`1 func, IDbExecutionStrategy executionStrategy, Boolean startLocalTransaction, Boolean releaseConnectionOnSuccess)
   at System.Data.Entity.Core.Objects.ObjectContext.<>c__DisplayClass69`1.<ExecuteStoreQueryReliably>b__67()
   at System.Data.Entity.SqlServer.DefaultSqlExecutionStrategy.Execute[TResult](Func`1 operation)
   at System.Data.Entity.Core.Objects.ObjectContext.ExecuteStoreQueryReliably[TElement](String commandText, String entitySetName, ExecutionOptions executionOptions, Object[] parameters)
   at System.Data.Entity.Core.Objects.ObjectContext.ExecuteStoreQuery[TElement](String commandText, ExecutionOptions executionOptions, Object[] parameters)
   at System.Data.Entity.Internal.InternalContext.<>c__DisplayClass14`1.<ExecuteSqlQuery>b__13()
   at System.Data.Entity.Internal.LazyEnumerator`1.MoveNext()
   at System.Collections.Generic.List`1..ctor(IEnumerable`1 collection)
   at System.Linq.Enumerable.ToList[TSource](IEnumerable`1 source)
   at INSCTMIS.Custom.Api.Data.GenericRepository`1.GetManyBySp[TEntity](String procName, String parameterNames, List`1 parameterValues) in C:\PROJECTS\IN-SCT MIS\api v1.0.0\INSCT-API\Data\Class1.cs:line 308
   at INSCTMIS.Custom.Api.Helpers.GenericService.GetManyBySp[TEntity](String procName, String parameterNames, List`1 parameterValues) in C:\PROJECTS\IN-SCT MIS\api v1.0.0\INSCT-API\Helpers\Class1.cs:line 276
   at INSCTMIS.Api.Controllers.RetargetingController.PostHouseholdsReadyForRetargeting(TabletRetargetingViewModel model) in C:\PROJECTS\IN-SCT MIS\api v1.0.0\INSCT-API\Controllers\RetargetingController.cs:line 118System.Data.SqlTypes.SqlTypeException: SqlDateTime overflow. Must be between 1/1/1753 12:00:00 AM and 12/31/9999 11:59:59 PM.
   at System.Data.SqlClient.TdsParser.TdsExecuteRPC(SqlCommand cmd, _SqlRPC[] rpcArray, Int32 timeout, Boolean inSchema, SqlNotificationRequest notificationRequest, TdsParserStateObject stateObj, Boolean isCommandProc, Boolean sync, TaskCompletionSource`1 completion, Int32 startRpc, Int32 startParam)
   at System.Data.SqlClient.SqlCommand.RunExecuteReaderTds(CommandBehavior cmdBehavior, RunBehavior runBehavior, Boolean returnStream, Boolean async, Int32 timeout, Task& task, Boolean asyncWrite, Boolean inRetry, SqlDataReader ds, Boolean describeParameterEncryptionRequest)
   at System.Data.SqlClient.SqlCommand.RunExecuteReader(CommandBehavior cmdBehavior, RunBehavior runBehavior, Boolean returnStream, String method, TaskCompletionSource`1 completion, Int32 timeout, Task& task, Boolean& usedCache, Boolean asyncWrite, Boolean inRetry)
   at System.Data.SqlClient.SqlCommand.RunExecuteReader(CommandBehavior cmdBehavior, RunBehavior runBehavior, Boolean returnStream, String method)
   at System.Data.SqlClient.SqlCommand.ExecuteReader(CommandBehavior behavior, String method)
   at System.Data.SqlClient.SqlCommand.ExecuteDbDataReader(CommandBehavior behavior)
   at System.Data.Common.DbCommand.ExecuteReader(CommandBehavior behavior)
   at System.Data.Entity.Infrastructure.Interception.DbCommandDispatcher.<Reader>b__c(DbCommand t, DbCommandInterceptionContext`1 c)
   at System.Data.Entity.Infrastructure.Interception.InternalDispatcher`1.Dispatch[TTarget,TInterceptionContext,TResult](TTarget target, Func`3 operation, TInterceptionContext interceptionContext, Action`3 executing, Action`3 executed)
   at System.Data.Entity.Infrastructure.Interception.DbCommandDispatcher.Reader(DbCommand command, DbCommandInterceptionContext interceptionContext)
   at System.Data.Entity.Internal.InterceptableDbCommand.ExecuteDbDataReader(CommandBehavior behavior)
   at System.Data.Common.DbCommand.ExecuteReader(CommandBehavior behavior)
   at System.Data.Entity.Core.Objects.ObjectContext.ExecuteStoreQueryInternal[TElement](String commandText, String entitySetName, ExecutionOptions executionOptions, Object[] parameters)
   at System.Data.Entity.Core.Objects.ObjectContext.<>c__DisplayClass69`1.<ExecuteStoreQueryReliably>b__68()
   at System.Data.Entity.Core.Objects.ObjectContext.ExecuteInTransaction[T](Func`1 func, IDbExecutionStrategy executionStrategy, Boolean startLocalTransaction, Boolean releaseConnectionOnSuccess)
   at System.Data.Entity.Core.Objects.ObjectContext.<>c__DisplayClass69`1.<ExecuteStoreQueryReliably>b__67()
   at System.Data.Entity.SqlServer.DefaultSqlExecutionStrategy.Execute[TResult](Func`1 operation)
   at System.Data.Entity.Core.Objects.ObjectContext.ExecuteStoreQueryReliably[TElement](String commandText, String entitySetName, ExecutionOptions executionOptions, Object[] parameters)
   at System.Data.Entity.Core.Objects.ObjectContext.ExecuteStoreQuery[TElement](String commandText, ExecutionOptions executionOptions, Object[] parameters)
   at System.Data.Entity.Internal.InternalContext.<>c__DisplayClass14`1.<ExecuteSqlQuery>b__13()
   at System.Data.Entity.Internal.LazyEnumerator`1.MoveNext()
   at System.Collections.Generic.List`1..ctor(IEnumerable`1 collection)
   at System.Linq.Enumerable.ToList[TSource](IEnumerable`1 source)
   at INSCTMIS.Custom.Api.Data.GenericRepository`1.GetManyBySp[TEntity](String procName, String parameterNames, List`1 parameterValues) in C:\PROJECTS\IN-SCT MIS\api v1.0.0\INSCT-API\Data\Class1.cs:line 308
   at INSCTMIS.Custom.Api.Helpers.GenericService.GetManyBySp[TEntity](String procName, String parameterNames, List`1 parameterValues) in C:\PROJECTS\IN-SCT MIS\api v1.0.0\INSCT-API\Helpers\Class1.cs:line 276
   at INSCTMIS.Api.Controllers.RetargetingController.PostHouseholdsReadyForRetargeting(TabletRetargetingViewModel model) in C:\PROJECTS\IN-SCT MIS\api v1.0.0\INSCT-API\Controllers\RetargetingController.cs:line 118
 ****************************************************************************************************************************
||            Date: 2020-04-30   Time : 15:35:11
 ****************************************************************************************************************************
 api/Retargeting/PostHouseholdsReadyForRetargeting/ 
 {"RetargetingInfo":"{\n    \"RetargetingDetailID\": \"9588BAA1-F067-4409-9BB6-AE0A388A6A8A\",\n    \"RetargetingHeaderID\": \"888AAD60-D78B-4D96-9829-EB123BE4D07B\",\n    \"CCCMember\": \"CC111\",\n    \"Status\": \"1\",\n    \"Pregnant\": null,\n    \"Lactating\": null,\n    \"Handicapped\": \"NO\",\n    \"ChronicallyIll\": \"NO\",\n    \"NutritionalStatus\": \"N\",\n    \"ChildUnderTSForCMAM\": \"YES\",\n    \"EnrolledInSchool\": null,\n    \"SchoolName\": null,\n    \"Grade\": null,\n    \"SocialWorker\": \"Admin\",\n    \"DateUpdated\": \"2020-04-30T00:00:00\",\n    \"IsUpdated\": true,\n    \"CreatedBy\": 1,\n    \"UserDevice\": {\n        \"DataId\": \"9588baa1-f067-4409-9bb6-ae0a388a6a8a\",\n        \"ModuleName\": \"Retargeting\",\n        \"AppVersion\": \"3.9.4\",\n        \"AppBuild\": \"1\",\n        \"DeviceId\": \"RZ8M928NV8D\",\n        \"DeviceModel\": \"SM-A307FN\",\n        \"DeviceManufacturer\": \"samsung\",\n        \"DeviceName\": \"SM-A307FN\",\n        \"Version\": \"9\",\n        \"VersionNumber\": \"0.0\",\n        \"IsDevice\": true\n    }\n}"}
 ****************************************************************************************************************************
||            Date: 2020-04-30   Time : 15:35:11
 ****************************************************************************************************************************

The parameterized query '(@RetargetingHeaderID nvarchar(36),@RetargetingDetailID nvarchar' expects the parameter '@Pregnant', which was not supplied. 
 
 

 ****************************************************************************************************************************
||            Date: 2020-04-30   Time : 15:35:11
 ****************************************************************************************************************************
Error Uploading Retargeting Data
:- System.Data.SqlClient.SqlException (0x80131904): The parameterized query '(@RetargetingHeaderID nvarchar(36),@RetargetingDetailID nvarchar' expects the parameter '@Pregnant', which was not supplied.
   at System.Data.SqlClient.SqlConnection.OnError(SqlException exception, Boolean breakConnection, Action`1 wrapCloseInAction)
   at System.Data.SqlClient.SqlInternalConnection.OnError(SqlException exception, Boolean breakConnection, Action`1 wrapCloseInAction)
   at System.Data.SqlClient.TdsParser.ThrowExceptionAndWarning(TdsParserStateObject stateObj, Boolean callerHasConnectionLock, Boolean asyncClose)
   at System.Data.SqlClient.TdsParser.TryRun(RunBehavior runBehavior, SqlCommand cmdHandler, SqlDataReader dataStream, BulkCopySimpleResultSet bulkCopyHandler, TdsParserStateObject stateObj, Boolean& dataReady)
   at System.Data.SqlClient.SqlDataReader.TryConsumeMetaData()
   at System.Data.SqlClient.SqlDataReader.get_MetaData()
   at System.Data.SqlClient.SqlCommand.FinishExecuteReader(SqlDataReader ds, RunBehavior runBehavior, String resetOptionsString, Boolean isInternal, Boolean forDescribeParameterEncryption, Boolean shouldCacheForAlwaysEncrypted)
   at System.Data.SqlClient.SqlCommand.RunExecuteReaderTds(CommandBehavior cmdBehavior, RunBehavior runBehavior, Boolean returnStream, Boolean async, Int32 timeout, Task& task, Boolean asyncWrite, Boolean inRetry, SqlDataReader ds, Boolean describeParameterEncryptionRequest)
   at System.Data.SqlClient.SqlCommand.RunExecuteReader(CommandBehavior cmdBehavior, RunBehavior runBehavior, Boolean returnStream, String method, TaskCompletionSource`1 completion, Int32 timeout, Task& task, Boolean& usedCache, Boolean asyncWrite, Boolean inRetry)
   at System.Data.SqlClient.SqlCommand.RunExecuteReader(CommandBehavior cmdBehavior, RunBehavior runBehavior, Boolean returnStream, String method)
   at System.Data.SqlClient.SqlCommand.ExecuteReader(CommandBehavior behavior, String method)
   at System.Data.SqlClient.SqlCommand.ExecuteDbDataReader(CommandBehavior behavior)
   at System.Data.Common.DbCommand.ExecuteReader(CommandBehavior behavior)
   at System.Data.Entity.Infrastructure.Interception.DbCommandDispatcher.<Reader>b__c(DbCommand t, DbCommandInterceptionContext`1 c)
   at System.Data.Entity.Infrastructure.Interception.InternalDispatcher`1.Dispatch[TTarget,TInterceptionContext,TResult](TTarget target, Func`3 operation, TInterceptionContext interceptionContext, Action`3 executing, Action`3 executed)
   at System.Data.Entity.Infrastructure.Interception.DbCommandDispatcher.Reader(DbCommand command, DbCommandInterceptionContext interceptionContext)
   at System.Data.Entity.Internal.InterceptableDbCommand.ExecuteDbDataReader(CommandBehavior behavior)
   at System.Data.Common.DbCommand.ExecuteReader(CommandBehavior behavior)
   at System.Data.Entity.Core.Objects.ObjectContext.ExecuteStoreQueryInternal[TElement](String commandText, String entitySetName, ExecutionOptions executionOptions, Object[] parameters)
   at System.Data.Entity.Core.Objects.ObjectContext.<>c__DisplayClass69`1.<ExecuteStoreQueryReliably>b__68()
   at System.Data.Entity.Core.Objects.ObjectContext.ExecuteInTransaction[T](Func`1 func, IDbExecutionStrategy executionStrategy, Boolean startLocalTransaction, Boolean releaseConnectionOnSuccess)
   at System.Data.Entity.Core.Objects.ObjectContext.<>c__DisplayClass69`1.<ExecuteStoreQueryReliably>b__67()
   at System.Data.Entity.SqlServer.DefaultSqlExecutionStrategy.Execute[TResult](Func`1 operation)
   at System.Data.Entity.Core.Objects.ObjectContext.ExecuteStoreQueryReliably[TElement](String commandText, String entitySetName, ExecutionOptions executionOptions, Object[] parameters)
   at System.Data.Entity.Core.Objects.ObjectContext.ExecuteStoreQuery[TElement](String commandText, ExecutionOptions executionOptions, Object[] parameters)
   at System.Data.Entity.Internal.InternalContext.<>c__DisplayClass14`1.<ExecuteSqlQuery>b__13()
   at System.Data.Entity.Internal.LazyEnumerator`1.MoveNext()
   at System.Collections.Generic.List`1..ctor(IEnumerable`1 collection)
   at System.Linq.Enumerable.ToList[TSource](IEnumerable`1 source)
   at INSCTMIS.Custom.Api.Data.GenericRepository`1.GetManyBySp[TEntity](String procName, String parameterNames, List`1 parameterValues) in C:\PROJECTS\IN-SCT MIS\api v1.0.0\INSCT-API\Data\Class1.cs:line 308
   at INSCTMIS.Custom.Api.Helpers.GenericService.GetManyBySp[TEntity](String procName, String parameterNames, List`1 parameterValues) in C:\PROJECTS\IN-SCT MIS\api v1.0.0\INSCT-API\Helpers\Class1.cs:line 276
   at INSCTMIS.Api.Controllers.RetargetingController.PostHouseholdsReadyForRetargeting(TabletRetargetingViewModel model) in C:\PROJECTS\IN-SCT MIS\api v1.0.0\INSCT-API\Controllers\RetargetingController.cs:line 118
ClientConnectionId:42e90717-ca50-4cc8-b30d-fe4fbab6ada5
Error Number:8178,State:1,Class:16System.Data.SqlClient.SqlException (0x80131904): The parameterized query '(@RetargetingHeaderID nvarchar(36),@RetargetingDetailID nvarchar' expects the parameter '@Pregnant', which was not supplied.
   at System.Data.SqlClient.SqlConnection.OnError(SqlException exception, Boolean breakConnection, Action`1 wrapCloseInAction)
   at System.Data.SqlClient.SqlInternalConnection.OnError(SqlException exception, Boolean breakConnection, Action`1 wrapCloseInAction)
   at System.Data.SqlClient.TdsParser.ThrowExceptionAndWarning(TdsParserStateObject stateObj, Boolean callerHasConnectionLock, Boolean asyncClose)
   at System.Data.SqlClient.TdsParser.TryRun(RunBehavior runBehavior, SqlCommand cmdHandler, SqlDataReader dataStream, BulkCopySimpleResultSet bulkCopyHandler, TdsParserStateObject stateObj, Boolean& dataReady)
   at System.Data.SqlClient.SqlDataReader.TryConsumeMetaData()
   at System.Data.SqlClient.SqlDataReader.get_MetaData()
   at System.Data.SqlClient.SqlCommand.FinishExecuteReader(SqlDataReader ds, RunBehavior runBehavior, String resetOptionsString, Boolean isInternal, Boolean forDescribeParameterEncryption, Boolean shouldCacheForAlwaysEncrypted)
   at System.Data.SqlClient.SqlCommand.RunExecuteReaderTds(CommandBehavior cmdBehavior, RunBehavior runBehavior, Boolean returnStream, Boolean async, Int32 timeout, Task& task, Boolean asyncWrite, Boolean inRetry, SqlDataReader ds, Boolean describeParameterEncryptionRequest)
   at System.Data.SqlClient.SqlCommand.RunExecuteReader(CommandBehavior cmdBehavior, RunBehavior runBehavior, Boolean returnStream, String method, TaskCompletionSource`1 completion, Int32 timeout, Task& task, Boolean& usedCache, Boolean asyncWrite, Boolean inRetry)
   at System.Data.SqlClient.SqlCommand.RunExecuteReader(CommandBehavior cmdBehavior, RunBehavior runBehavior, Boolean returnStream, String method)
   at System.Data.SqlClient.SqlCommand.ExecuteReader(CommandBehavior behavior, String method)
   at System.Data.SqlClient.SqlCommand.ExecuteDbDataReader(CommandBehavior behavior)
   at System.Data.Common.DbCommand.ExecuteReader(CommandBehavior behavior)
   at System.Data.Entity.Infrastructure.Interception.DbCommandDispatcher.<Reader>b__c(DbCommand t, DbCommandInterceptionContext`1 c)
   at System.Data.Entity.Infrastructure.Interception.InternalDispatcher`1.Dispatch[TTarget,TInterceptionContext,TResult](TTarget target, Func`3 operation, TInterceptionContext interceptionContext, Action`3 executing, Action`3 executed)
   at System.Data.Entity.Infrastructure.Interception.DbCommandDispatcher.Reader(DbCommand command, DbCommandInterceptionContext interceptionContext)
   at System.Data.Entity.Internal.InterceptableDbCommand.ExecuteDbDataReader(CommandBehavior behavior)
   at System.Data.Common.DbCommand.ExecuteReader(CommandBehavior behavior)
   at System.Data.Entity.Core.Objects.ObjectContext.ExecuteStoreQueryInternal[TElement](String commandText, String entitySetName, ExecutionOptions executionOptions, Object[] parameters)
   at System.Data.Entity.Core.Objects.ObjectContext.<>c__DisplayClass69`1.<ExecuteStoreQueryReliably>b__68()
   at System.Data.Entity.Core.Objects.ObjectContext.ExecuteInTransaction[T](Func`1 func, IDbExecutionStrategy executionStrategy, Boolean startLocalTransaction, Boolean releaseConnectionOnSuccess)
   at System.Data.Entity.Core.Objects.ObjectContext.<>c__DisplayClass69`1.<ExecuteStoreQueryReliably>b__67()
   at System.Data.Entity.SqlServer.DefaultSqlExecutionStrategy.Execute[TResult](Func`1 operation)
   at System.Data.Entity.Core.Objects.ObjectContext.ExecuteStoreQueryReliably[TElement](String commandText, String entitySetName, ExecutionOptions executionOptions, Object[] parameters)
   at System.Data.Entity.Core.Objects.ObjectContext.ExecuteStoreQuery[TElement](String commandText, ExecutionOptions executionOptions, Object[] parameters)
   at System.Data.Entity.Internal.InternalContext.<>c__DisplayClass14`1.<ExecuteSqlQuery>b__13()
   at System.Data.Entity.Internal.LazyEnumerator`1.MoveNext()
   at System.Collections.Generic.List`1..ctor(IEnumerable`1 collection)
   at System.Linq.Enumerable.ToList[TSource](IEnumerable`1 source)
   at INSCTMIS.Custom.Api.Data.GenericRepository`1.GetManyBySp[TEntity](String procName, String parameterNames, List`1 parameterValues) in C:\PROJECTS\IN-SCT MIS\api v1.0.0\INSCT-API\Data\Class1.cs:line 308
   at INSCTMIS.Custom.Api.Helpers.GenericService.GetManyBySp[TEntity](String procName, String parameterNames, List`1 parameterValues) in C:\PROJECTS\IN-SCT MIS\api v1.0.0\INSCT-API\Helpers\Class1.cs:line 276
   at INSCTMIS.Api.Controllers.RetargetingController.PostHouseholdsReadyForRetargeting(TabletRetargetingViewModel model) in C:\PROJECTS\IN-SCT MIS\api v1.0.0\INSCT-API\Controllers\RetargetingController.cs:line 118
ClientConnectionId:42e90717-ca50-4cc8-b30d-fe4fbab6ada5
Error Number:8178,State:1,Class:16
 ****************************************************************************************************************************
||            Date: 2020-04-30   Time : 15:36:11
 ****************************************************************************************************************************
 api/Retargeting/PostHouseholdsReadyForRetargeting/ 
 {"RetargetingInfo":"{\n    \"RetargetingDetailID\": \"9588BAA1-F067-4409-9BB6-AE0A388A6A8A\",\n    \"RetargetingHeaderID\": \"888AAD60-D78B-4D96-9829-EB123BE4D07B\",\n    \"CCCMember\": \"CC111\",\n    \"Status\": \"1\",\n    \"Pregnant\": null,\n    \"Lactating\": null,\n    \"Handicapped\": \"NO\",\n    \"ChronicallyIll\": \"NO\",\n    \"NutritionalStatus\": \"N\",\n    \"ChildUnderTSForCMAM\": \"YES\",\n    \"EnrolledInSchool\": null,\n    \"SchoolName\": null,\n    \"Grade\": null,\n    \"SocialWorker\": \"Admin\",\n    \"DateUpdated\": \"2020-04-30T00:00:00\",\n    \"IsUpdated\": true,\n    \"CreatedBy\": 1,\n    \"UserDevice\": {\n        \"DataId\": \"9588baa1-f067-4409-9bb6-ae0a388a6a8a\",\n        \"ModuleName\": \"Retargeting\",\n        \"AppVersion\": \"3.9.4\",\n        \"AppBuild\": \"1\",\n        \"DeviceId\": \"RZ8M928NV8D\",\n        \"DeviceModel\": \"SM-A307FN\",\n        \"DeviceManufacturer\": \"samsung\",\n        \"DeviceName\": \"SM-A307FN\",\n        \"Version\": \"9\",\n        \"VersionNumber\": \"0.0\",\n        \"IsDevice\": true\n    }\n}"}
 ****************************************************************************************************************************
||            Date: 2020-04-30   Time : 15:36:11
 ****************************************************************************************************************************

The parameterized query '(@RetargetingHeaderID nvarchar(36),@RetargetingDetailID nvarchar' expects the parameter '@Pregnant', which was not supplied. 
 
 

 ****************************************************************************************************************************
||            Date: 2020-04-30   Time : 15:36:11
 ****************************************************************************************************************************
Error Uploading Retargeting Data
:- System.Data.SqlClient.SqlException (0x80131904): The parameterized query '(@RetargetingHeaderID nvarchar(36),@RetargetingDetailID nvarchar' expects the parameter '@Pregnant', which was not supplied.
   at System.Data.SqlClient.SqlConnection.OnError(SqlException exception, Boolean breakConnection, Action`1 wrapCloseInAction)
   at System.Data.SqlClient.SqlInternalConnection.OnError(SqlException exception, Boolean breakConnection, Action`1 wrapCloseInAction)
   at System.Data.SqlClient.TdsParser.ThrowExceptionAndWarning(TdsParserStateObject stateObj, Boolean callerHasConnectionLock, Boolean asyncClose)
   at System.Data.SqlClient.TdsParser.TryRun(RunBehavior runBehavior, SqlCommand cmdHandler, SqlDataReader dataStream, BulkCopySimpleResultSet bulkCopyHandler, TdsParserStateObject stateObj, Boolean& dataReady)
   at System.Data.SqlClient.SqlDataReader.TryConsumeMetaData()
   at System.Data.SqlClient.SqlDataReader.get_MetaData()
   at System.Data.SqlClient.SqlCommand.FinishExecuteReader(SqlDataReader ds, RunBehavior runBehavior, String resetOptionsString, Boolean isInternal, Boolean forDescribeParameterEncryption, Boolean shouldCacheForAlwaysEncrypted)
   at System.Data.SqlClient.SqlCommand.RunExecuteReaderTds(CommandBehavior cmdBehavior, RunBehavior runBehavior, Boolean returnStream, Boolean async, Int32 timeout, Task& task, Boolean asyncWrite, Boolean inRetry, SqlDataReader ds, Boolean describeParameterEncryptionRequest)
   at System.Data.SqlClient.SqlCommand.RunExecuteReader(CommandBehavior cmdBehavior, RunBehavior runBehavior, Boolean returnStream, String method, TaskCompletionSource`1 completion, Int32 timeout, Task& task, Boolean& usedCache, Boolean asyncWrite, Boolean inRetry)
   at System.Data.SqlClient.SqlCommand.RunExecuteReader(CommandBehavior cmdBehavior, RunBehavior runBehavior, Boolean returnStream, String method)
   at System.Data.SqlClient.SqlCommand.ExecuteReader(CommandBehavior behavior, String method)
   at System.Data.SqlClient.SqlCommand.ExecuteDbDataReader(CommandBehavior behavior)
   at System.Data.Common.DbCommand.ExecuteReader(CommandBehavior behavior)
   at System.Data.Entity.Infrastructure.Interception.DbCommandDispatcher.<Reader>b__c(DbCommand t, DbCommandInterceptionContext`1 c)
   at System.Data.Entity.Infrastructure.Interception.InternalDispatcher`1.Dispatch[TTarget,TInterceptionContext,TResult](TTarget target, Func`3 operation, TInterceptionContext interceptionContext, Action`3 executing, Action`3 executed)
   at System.Data.Entity.Infrastructure.Interception.DbCommandDispatcher.Reader(DbCommand command, DbCommandInterceptionContext interceptionContext)
   at System.Data.Entity.Internal.InterceptableDbCommand.ExecuteDbDataReader(CommandBehavior behavior)
   at System.Data.Common.DbCommand.ExecuteReader(CommandBehavior behavior)
   at System.Data.Entity.Core.Objects.ObjectContext.ExecuteStoreQueryInternal[TElement](String commandText, String entitySetName, ExecutionOptions executionOptions, Object[] parameters)
   at System.Data.Entity.Core.Objects.ObjectContext.<>c__DisplayClass69`1.<ExecuteStoreQueryReliably>b__68()
   at System.Data.Entity.Core.Objects.ObjectContext.ExecuteInTransaction[T](Func`1 func, IDbExecutionStrategy executionStrategy, Boolean startLocalTransaction, Boolean releaseConnectionOnSuccess)
   at System.Data.Entity.Core.Objects.ObjectContext.<>c__DisplayClass69`1.<ExecuteStoreQueryReliably>b__67()
   at System.Data.Entity.SqlServer.DefaultSqlExecutionStrategy.Execute[TResult](Func`1 operation)
   at System.Data.Entity.Core.Objects.ObjectContext.ExecuteStoreQueryReliably[TElement](String commandText, String entitySetName, ExecutionOptions executionOptions, Object[] parameters)
   at System.Data.Entity.Core.Objects.ObjectContext.ExecuteStoreQuery[TElement](String commandText, ExecutionOptions executionOptions, Object[] parameters)
   at System.Data.Entity.Internal.InternalContext.<>c__DisplayClass14`1.<ExecuteSqlQuery>b__13()
   at System.Data.Entity.Internal.LazyEnumerator`1.MoveNext()
   at System.Collections.Generic.List`1..ctor(IEnumerable`1 collection)
   at System.Linq.Enumerable.ToList[TSource](IEnumerable`1 source)
   at INSCTMIS.Custom.Api.Data.GenericRepository`1.GetManyBySp[TEntity](String procName, String parameterNames, List`1 parameterValues) in C:\PROJECTS\IN-SCT MIS\api v1.0.0\INSCT-API\Data\Class1.cs:line 308
   at INSCTMIS.Custom.Api.Helpers.GenericService.GetManyBySp[TEntity](String procName, String parameterNames, List`1 parameterValues) in C:\PROJECTS\IN-SCT MIS\api v1.0.0\INSCT-API\Helpers\Class1.cs:line 276
   at INSCTMIS.Api.Controllers.RetargetingController.PostHouseholdsReadyForRetargeting(TabletRetargetingViewModel model) in C:\PROJECTS\IN-SCT MIS\api v1.0.0\INSCT-API\Controllers\RetargetingController.cs:line 118
ClientConnectionId:42e90717-ca50-4cc8-b30d-fe4fbab6ada5
Error Number:8178,State:1,Class:16System.Data.SqlClient.SqlException (0x80131904): The parameterized query '(@RetargetingHeaderID nvarchar(36),@RetargetingDetailID nvarchar' expects the parameter '@Pregnant', which was not supplied.
   at System.Data.SqlClient.SqlConnection.OnError(SqlException exception, Boolean breakConnection, Action`1 wrapCloseInAction)
   at System.Data.SqlClient.SqlInternalConnection.OnError(SqlException exception, Boolean breakConnection, Action`1 wrapCloseInAction)
   at System.Data.SqlClient.TdsParser.ThrowExceptionAndWarning(TdsParserStateObject stateObj, Boolean callerHasConnectionLock, Boolean asyncClose)
   at System.Data.SqlClient.TdsParser.TryRun(RunBehavior runBehavior, SqlCommand cmdHandler, SqlDataReader dataStream, BulkCopySimpleResultSet bulkCopyHandler, TdsParserStateObject stateObj, Boolean& dataReady)
   at System.Data.SqlClient.SqlDataReader.TryConsumeMetaData()
   at System.Data.SqlClient.SqlDataReader.get_MetaData()
   at System.Data.SqlClient.SqlCommand.FinishExecuteReader(SqlDataReader ds, RunBehavior runBehavior, String resetOptionsString, Boolean isInternal, Boolean forDescribeParameterEncryption, Boolean shouldCacheForAlwaysEncrypted)
   at System.Data.SqlClient.SqlCommand.RunExecuteReaderTds(CommandBehavior cmdBehavior, RunBehavior runBehavior, Boolean returnStream, Boolean async, Int32 timeout, Task& task, Boolean asyncWrite, Boolean inRetry, SqlDataReader ds, Boolean describeParameterEncryptionRequest)
   at System.Data.SqlClient.SqlCommand.RunExecuteReader(CommandBehavior cmdBehavior, RunBehavior runBehavior, Boolean returnStream, String method, TaskCompletionSource`1 completion, Int32 timeout, Task& task, Boolean& usedCache, Boolean asyncWrite, Boolean inRetry)
   at System.Data.SqlClient.SqlCommand.RunExecuteReader(CommandBehavior cmdBehavior, RunBehavior runBehavior, Boolean returnStream, String method)
   at System.Data.SqlClient.SqlCommand.ExecuteReader(CommandBehavior behavior, String method)
   at System.Data.SqlClient.SqlCommand.ExecuteDbDataReader(CommandBehavior behavior)
   at System.Data.Common.DbCommand.ExecuteReader(CommandBehavior behavior)
   at System.Data.Entity.Infrastructure.Interception.DbCommandDispatcher.<Reader>b__c(DbCommand t, DbCommandInterceptionContext`1 c)
   at System.Data.Entity.Infrastructure.Interception.InternalDispatcher`1.Dispatch[TTarget,TInterceptionContext,TResult](TTarget target, Func`3 operation, TInterceptionContext interceptionContext, Action`3 executing, Action`3 executed)
   at System.Data.Entity.Infrastructure.Interception.DbCommandDispatcher.Reader(DbCommand command, DbCommandInterceptionContext interceptionContext)
   at System.Data.Entity.Internal.InterceptableDbCommand.ExecuteDbDataReader(CommandBehavior behavior)
   at System.Data.Common.DbCommand.ExecuteReader(CommandBehavior behavior)
   at System.Data.Entity.Core.Objects.ObjectContext.ExecuteStoreQueryInternal[TElement](String commandText, String entitySetName, ExecutionOptions executionOptions, Object[] parameters)
   at System.Data.Entity.Core.Objects.ObjectContext.<>c__DisplayClass69`1.<ExecuteStoreQueryReliably>b__68()
   at System.Data.Entity.Core.Objects.ObjectContext.ExecuteInTransaction[T](Func`1 func, IDbExecutionStrategy executionStrategy, Boolean startLocalTransaction, Boolean releaseConnectionOnSuccess)
   at System.Data.Entity.Core.Objects.ObjectContext.<>c__DisplayClass69`1.<ExecuteStoreQueryReliably>b__67()
   at System.Data.Entity.SqlServer.DefaultSqlExecutionStrategy.Execute[TResult](Func`1 operation)
   at System.Data.Entity.Core.Objects.ObjectContext.ExecuteStoreQueryReliably[TElement](String commandText, String entitySetName, ExecutionOptions executionOptions, Object[] parameters)
   at System.Data.Entity.Core.Objects.ObjectContext.ExecuteStoreQuery[TElement](String commandText, ExecutionOptions executionOptions, Object[] parameters)
   at System.Data.Entity.Internal.InternalContext.<>c__DisplayClass14`1.<ExecuteSqlQuery>b__13()
   at System.Data.Entity.Internal.LazyEnumerator`1.MoveNext()
   at System.Collections.Generic.List`1..ctor(IEnumerable`1 collection)
   at System.Linq.Enumerable.ToList[TSource](IEnumerable`1 source)
   at INSCTMIS.Custom.Api.Data.GenericRepository`1.GetManyBySp[TEntity](String procName, String parameterNames, List`1 parameterValues) in C:\PROJECTS\IN-SCT MIS\api v1.0.0\INSCT-API\Data\Class1.cs:line 308
   at INSCTMIS.Custom.Api.Helpers.GenericService.GetManyBySp[TEntity](String procName, String parameterNames, List`1 parameterValues) in C:\PROJECTS\IN-SCT MIS\api v1.0.0\INSCT-API\Helpers\Class1.cs:line 276
   at INSCTMIS.Api.Controllers.RetargetingController.PostHouseholdsReadyForRetargeting(TabletRetargetingViewModel model) in C:\PROJECTS\IN-SCT MIS\api v1.0.0\INSCT-API\Controllers\RetargetingController.cs:line 118
ClientConnectionId:42e90717-ca50-4cc8-b30d-fe4fbab6ada5
Error Number:8178,State:1,Class:16
 ****************************************************************************************************************************
||            Date: 2020-04-30   Time : 15:41:21
 ****************************************************************************************************************************
 api/Retargeting/PostHouseholdsReadyForRetargeting/ 
 {"RetargetingInfo":"{\n    \"RetargetingDetailID\": \"9588BAA1-F067-4409-9BB6-AE0A388A6A8A\",\n    \"RetargetingHeaderID\": \"888AAD60-D78B-4D96-9829-EB123BE4D07B\",\n    \"CCCMember\": \"CC111\",\n    \"Status\": \"1\",\n    \"Pregnant\": null,\n    \"Lactating\": null,\n    \"Handicapped\": \"NO\",\n    \"ChronicallyIll\": \"NO\",\n    \"NutritionalStatus\": \"N\",\n    \"ChildUnderTSForCMAM\": \"YES\",\n    \"EnrolledInSchool\": null,\n    \"SchoolName\": null,\n    \"Grade\": null,\n    \"SocialWorker\": \"Admin\",\n    \"DateUpdated\": \"2020-04-30T00:00:00\",\n    \"IsUpdated\": true,\n    \"CreatedBy\": 1,\n    \"UserDevice\": {\n        \"DataId\": \"9588baa1-f067-4409-9bb6-ae0a388a6a8a\",\n        \"ModuleName\": \"Retargeting\",\n        \"AppVersion\": \"3.9.4\",\n        \"AppBuild\": \"1\",\n        \"DeviceId\": \"RZ8M928NV8D\",\n        \"DeviceModel\": \"SM-A307FN\",\n        \"DeviceManufacturer\": \"samsung\",\n        \"DeviceName\": \"SM-A307FN\",\n        \"Version\": \"9\",\n        \"VersionNumber\": \"0.0\",\n        \"IsDevice\": true\n    }\n}"}
 ****************************************************************************************************************************
||            Date: 2020-04-30   Time : 15:41:21
 ****************************************************************************************************************************

The parameterized query '(@RetargetingHeaderID nvarchar(36),@RetargetingDetailID nvarchar' expects the parameter '@Pregnant', which was not supplied. 
 
 

 ****************************************************************************************************************************
||            Date: 2020-04-30   Time : 15:41:21
 ****************************************************************************************************************************
Error Uploading Retargeting Data
:- System.Data.SqlClient.SqlException (0x80131904): The parameterized query '(@RetargetingHeaderID nvarchar(36),@RetargetingDetailID nvarchar' expects the parameter '@Pregnant', which was not supplied.
   at System.Data.SqlClient.SqlConnection.OnError(SqlException exception, Boolean breakConnection, Action`1 wrapCloseInAction)
   at System.Data.SqlClient.SqlInternalConnection.OnError(SqlException exception, Boolean breakConnection, Action`1 wrapCloseInAction)
   at System.Data.SqlClient.TdsParser.ThrowExceptionAndWarning(TdsParserStateObject stateObj, Boolean callerHasConnectionLock, Boolean asyncClose)
   at System.Data.SqlClient.TdsParser.TryRun(RunBehavior runBehavior, SqlCommand cmdHandler, SqlDataReader dataStream, BulkCopySimpleResultSet bulkCopyHandler, TdsParserStateObject stateObj, Boolean& dataReady)
   at System.Data.SqlClient.SqlDataReader.TryConsumeMetaData()
   at System.Data.SqlClient.SqlDataReader.get_MetaData()
   at System.Data.SqlClient.SqlCommand.FinishExecuteReader(SqlDataReader ds, RunBehavior runBehavior, String resetOptionsString, Boolean isInternal, Boolean forDescribeParameterEncryption, Boolean shouldCacheForAlwaysEncrypted)
   at System.Data.SqlClient.SqlCommand.RunExecuteReaderTds(CommandBehavior cmdBehavior, RunBehavior runBehavior, Boolean returnStream, Boolean async, Int32 timeout, Task& task, Boolean asyncWrite, Boolean inRetry, SqlDataReader ds, Boolean describeParameterEncryptionRequest)
   at System.Data.SqlClient.SqlCommand.RunExecuteReader(CommandBehavior cmdBehavior, RunBehavior runBehavior, Boolean returnStream, String method, TaskCompletionSource`1 completion, Int32 timeout, Task& task, Boolean& usedCache, Boolean asyncWrite, Boolean inRetry)
   at System.Data.SqlClient.SqlCommand.RunExecuteReader(CommandBehavior cmdBehavior, RunBehavior runBehavior, Boolean returnStream, String method)
   at System.Data.SqlClient.SqlCommand.ExecuteReader(CommandBehavior behavior, String method)
   at System.Data.SqlClient.SqlCommand.ExecuteDbDataReader(CommandBehavior behavior)
   at System.Data.Common.DbCommand.ExecuteReader(CommandBehavior behavior)
   at System.Data.Entity.Infrastructure.Interception.DbCommandDispatcher.<Reader>b__c(DbCommand t, DbCommandInterceptionContext`1 c)
   at System.Data.Entity.Infrastructure.Interception.InternalDispatcher`1.Dispatch[TTarget,TInterceptionContext,TResult](TTarget target, Func`3 operation, TInterceptionContext interceptionContext, Action`3 executing, Action`3 executed)
   at System.Data.Entity.Infrastructure.Interception.DbCommandDispatcher.Reader(DbCommand command, DbCommandInterceptionContext interceptionContext)
   at System.Data.Entity.Internal.InterceptableDbCommand.ExecuteDbDataReader(CommandBehavior behavior)
   at System.Data.Common.DbCommand.ExecuteReader(CommandBehavior behavior)
   at System.Data.Entity.Core.Objects.ObjectContext.ExecuteStoreQueryInternal[TElement](String commandText, String entitySetName, ExecutionOptions executionOptions, Object[] parameters)
   at System.Data.Entity.Core.Objects.ObjectContext.<>c__DisplayClass69`1.<ExecuteStoreQueryReliably>b__68()
   at System.Data.Entity.Core.Objects.ObjectContext.ExecuteInTransaction[T](Func`1 func, IDbExecutionStrategy executionStrategy, Boolean startLocalTransaction, Boolean releaseConnectionOnSuccess)
   at System.Data.Entity.Core.Objects.ObjectContext.<>c__DisplayClass69`1.<ExecuteStoreQueryReliably>b__67()
   at System.Data.Entity.SqlServer.DefaultSqlExecutionStrategy.Execute[TResult](Func`1 operation)
   at System.Data.Entity.Core.Objects.ObjectContext.ExecuteStoreQueryReliably[TElement](String commandText, String entitySetName, ExecutionOptions executionOptions, Object[] parameters)
   at System.Data.Entity.Core.Objects.ObjectContext.ExecuteStoreQuery[TElement](String commandText, ExecutionOptions executionOptions, Object[] parameters)
   at System.Data.Entity.Internal.InternalContext.<>c__DisplayClass14`1.<ExecuteSqlQuery>b__13()
   at System.Data.Entity.Internal.LazyEnumerator`1.MoveNext()
   at System.Collections.Generic.List`1..ctor(IEnumerable`1 collection)
   at System.Linq.Enumerable.ToList[TSource](IEnumerable`1 source)
   at INSCTMIS.Custom.Api.Data.GenericRepository`1.GetManyBySp[TEntity](String procName, String parameterNames, List`1 parameterValues) in C:\PROJECTS\IN-SCT MIS\api v1.0.0\INSCT-API\Data\Class1.cs:line 308
   at INSCTMIS.Custom.Api.Helpers.GenericService.GetManyBySp[TEntity](String procName, String parameterNames, List`1 parameterValues) in C:\PROJECTS\IN-SCT MIS\api v1.0.0\INSCT-API\Helpers\Class1.cs:line 276
   at INSCTMIS.Api.Controllers.RetargetingController.PostHouseholdsReadyForRetargeting(TabletRetargetingViewModel model) in C:\PROJECTS\IN-SCT MIS\api v1.0.0\INSCT-API\Controllers\RetargetingController.cs:line 118
ClientConnectionId:42e90717-ca50-4cc8-b30d-fe4fbab6ada5
Error Number:8178,State:1,Class:16System.Data.SqlClient.SqlException (0x80131904): The parameterized query '(@RetargetingHeaderID nvarchar(36),@RetargetingDetailID nvarchar' expects the parameter '@Pregnant', which was not supplied.
   at System.Data.SqlClient.SqlConnection.OnError(SqlException exception, Boolean breakConnection, Action`1 wrapCloseInAction)
   at System.Data.SqlClient.SqlInternalConnection.OnError(SqlException exception, Boolean breakConnection, Action`1 wrapCloseInAction)
   at System.Data.SqlClient.TdsParser.ThrowExceptionAndWarning(TdsParserStateObject stateObj, Boolean callerHasConnectionLock, Boolean asyncClose)
   at System.Data.SqlClient.TdsParser.TryRun(RunBehavior runBehavior, SqlCommand cmdHandler, SqlDataReader dataStream, BulkCopySimpleResultSet bulkCopyHandler, TdsParserStateObject stateObj, Boolean& dataReady)
   at System.Data.SqlClient.SqlDataReader.TryConsumeMetaData()
   at System.Data.SqlClient.SqlDataReader.get_MetaData()
   at System.Data.SqlClient.SqlCommand.FinishExecuteReader(SqlDataReader ds, RunBehavior runBehavior, String resetOptionsString, Boolean isInternal, Boolean forDescribeParameterEncryption, Boolean shouldCacheForAlwaysEncrypted)
   at System.Data.SqlClient.SqlCommand.RunExecuteReaderTds(CommandBehavior cmdBehavior, RunBehavior runBehavior, Boolean returnStream, Boolean async, Int32 timeout, Task& task, Boolean asyncWrite, Boolean inRetry, SqlDataReader ds, Boolean describeParameterEncryptionRequest)
   at System.Data.SqlClient.SqlCommand.RunExecuteReader(CommandBehavior cmdBehavior, RunBehavior runBehavior, Boolean returnStream, String method, TaskCompletionSource`1 completion, Int32 timeout, Task& task, Boolean& usedCache, Boolean asyncWrite, Boolean inRetry)
   at System.Data.SqlClient.SqlCommand.RunExecuteReader(CommandBehavior cmdBehavior, RunBehavior runBehavior, Boolean returnStream, String method)
   at System.Data.SqlClient.SqlCommand.ExecuteReader(CommandBehavior behavior, String method)
   at System.Data.SqlClient.SqlCommand.ExecuteDbDataReader(CommandBehavior behavior)
   at System.Data.Common.DbCommand.ExecuteReader(CommandBehavior behavior)
   at System.Data.Entity.Infrastructure.Interception.DbCommandDispatcher.<Reader>b__c(DbCommand t, DbCommandInterceptionContext`1 c)
   at System.Data.Entity.Infrastructure.Interception.InternalDispatcher`1.Dispatch[TTarget,TInterceptionContext,TResult](TTarget target, Func`3 operation, TInterceptionContext interceptionContext, Action`3 executing, Action`3 executed)
   at System.Data.Entity.Infrastructure.Interception.DbCommandDispatcher.Reader(DbCommand command, DbCommandInterceptionContext interceptionContext)
   at System.Data.Entity.Internal.InterceptableDbCommand.ExecuteDbDataReader(CommandBehavior behavior)
   at System.Data.Common.DbCommand.ExecuteReader(CommandBehavior behavior)
   at System.Data.Entity.Core.Objects.ObjectContext.ExecuteStoreQueryInternal[TElement](String commandText, String entitySetName, ExecutionOptions executionOptions, Object[] parameters)
   at System.Data.Entity.Core.Objects.ObjectContext.<>c__DisplayClass69`1.<ExecuteStoreQueryReliably>b__68()
   at System.Data.Entity.Core.Objects.ObjectContext.ExecuteInTransaction[T](Func`1 func, IDbExecutionStrategy executionStrategy, Boolean startLocalTransaction, Boolean releaseConnectionOnSuccess)
   at System.Data.Entity.Core.Objects.ObjectContext.<>c__DisplayClass69`1.<ExecuteStoreQueryReliably>b__67()
   at System.Data.Entity.SqlServer.DefaultSqlExecutionStrategy.Execute[TResult](Func`1 operation)
   at System.Data.Entity.Core.Objects.ObjectContext.ExecuteStoreQueryReliably[TElement](String commandText, String entitySetName, ExecutionOptions executionOptions, Object[] parameters)
   at System.Data.Entity.Core.Objects.ObjectContext.ExecuteStoreQuery[TElement](String commandText, ExecutionOptions executionOptions, Object[] parameters)
   at System.Data.Entity.Internal.InternalContext.<>c__DisplayClass14`1.<ExecuteSqlQuery>b__13()
   at System.Data.Entity.Internal.LazyEnumerator`1.MoveNext()
   at System.Collections.Generic.List`1..ctor(IEnumerable`1 collection)
   at System.Linq.Enumerable.ToList[TSource](IEnumerable`1 source)
   at INSCTMIS.Custom.Api.Data.GenericRepository`1.GetManyBySp[TEntity](String procName, String parameterNames, List`1 parameterValues) in C:\PROJECTS\IN-SCT MIS\api v1.0.0\INSCT-API\Data\Class1.cs:line 308
   at INSCTMIS.Custom.Api.Helpers.GenericService.GetManyBySp[TEntity](String procName, String parameterNames, List`1 parameterValues) in C:\PROJECTS\IN-SCT MIS\api v1.0.0\INSCT-API\Helpers\Class1.cs:line 276
   at INSCTMIS.Api.Controllers.RetargetingController.PostHouseholdsReadyForRetargeting(TabletRetargetingViewModel model) in C:\PROJECTS\IN-SCT MIS\api v1.0.0\INSCT-API\Controllers\RetargetingController.cs:line 118
ClientConnectionId:42e90717-ca50-4cc8-b30d-fe4fbab6ada5
Error Number:8178,State:1,Class:16
 ****************************************************************************************************************************
||            Date: 2020-04-30   Time : 15:56:11
 ****************************************************************************************************************************
 api/Retargeting/PostHouseholdsReadyForRetargeting/ 
 {"RetargetingInfo":"{\n    \"RetargetingDetailID\": \"9588BAA1-F067-4409-9BB6-AE0A388A6A8A\",\n    \"RetargetingHeaderID\": \"888AAD60-D78B-4D96-9829-EB123BE4D07B\",\n    \"CCCMember\": \"CC111\",\n    \"Status\": \"1\",\n    \"Pregnant\": null,\n    \"Lactating\": null,\n    \"Handicapped\": \"NO\",\n    \"ChronicallyIll\": \"NO\",\n    \"NutritionalStatus\": \"N\",\n    \"ChildUnderTSForCMAM\": \"YES\",\n    \"EnrolledInSchool\": null,\n    \"SchoolName\": null,\n    \"Grade\": null,\n    \"SocialWorker\": \"Admin\",\n    \"DateUpdated\": \"2020-04-30T00:00:00\",\n    \"IsUpdated\": true,\n    \"CreatedBy\": 1,\n    \"UserDevice\": {\n        \"DataId\": \"9588baa1-f067-4409-9bb6-ae0a388a6a8a\",\n        \"ModuleName\": \"Retargeting\",\n        \"AppVersion\": \"3.9.4\",\n        \"AppBuild\": \"1\",\n        \"DeviceId\": \"RZ8M928NV8D\",\n        \"DeviceModel\": \"SM-A307FN\",\n        \"DeviceManufacturer\": \"samsung\",\n        \"DeviceName\": \"SM-A307FN\",\n        \"Version\": \"9\",\n        \"VersionNumber\": \"0.0\",\n        \"IsDevice\": true\n    }\n}"}
 ****************************************************************************************************************************
||            Date: 2020-04-30   Time : 20:05:27
 ****************************************************************************************************************************
 api/Retargeting/PostHouseholdsReadyForRetargeting/ 
 {"RetargetingInfo":null}
 ****************************************************************************************************************************
||            Date: 2020-04-30   Time : 20:05:27
 ****************************************************************************************************************************
 The RetargetingInfo field is required. - The Posted Data has been rejected
 ****************************************************************************************************************************
||            Date: 2020-04-30   Time : 20:05:56
 ****************************************************************************************************************************
 api/Compliance/PostHouseholdChildProtectionData/ 
 {"ISNPInfo":"{\"CPCaseHeaderInfo\":{\"ChildProtectionHeaderID\":\"63c90ec8-87f7-4dca-aa64-7c82c6762b8a\",\"ChildProtectionId\":null,\"CaseManagementReferral\":\"NO\",\"CaseStatusId\":null,\"ClientTypeID\":null,\"CollectionDate\":\"2020-04-30T19:59:37.976014\",\"SocialWorker\":\"Admin\",\"Remarks\":\"Fhkk\",\"FiscalYear\":null,\"ChildDetailID\":\"f754fd6f-4847-4732-a127-fdaa0664d753\",\"CreatedBy\":\"Admin\",\"CreatedOn\":\"2020-04-30T19:59:37.974637\"},\"CPCaseDetailInfo\":[{\"ChildProtectionDetailID\":\"97effefa-46f2-4189-9ceb-647bbcd7e319\",\"ChildProtectionHeaderID\":\"63c90ec8-87f7-4dca-aa64-7c82c6762b8a\",\"RiskId\":\"7\",\"ServiceId\":\"6\",\"ProviderId\":\"7\"},{\"ChildProtectionDetailID\":\"30d6ebca-56e2-4603-bb01-b78fbb0dcaf0\",\"ChildProtectionHeaderID\":\"63c90ec8-87f7-4dca-aa64-7c82c6762b8a\",\"RiskId\":\"11\",\"ServiceId\":\"7\",\"ProviderId\":\"4\"}],\"CPCaseVisitHeaderInfo\":null,\"CPCaseVisitDetailInfo\":null,\"UserDevice\":null}"}
 ****************************************************************************************************************************
||            Date: 2020-04-30   Time : 20:06:38
 ****************************************************************************************************************************

The parameterized query '(@ChildProtectionId nvarchar(4000),@ChildDetailID uniqueidentifi' expects the parameter '@ChildProtectionId', which was not supplied. 
 
 

 ****************************************************************************************************************************
||            Date: 2020-04-30   Time : 20:06:55
 ****************************************************************************************************************************
 api/Compliance/PostHouseholdChildProtectionData/ 
 {"ISNPInfo":"{\"CPCaseHeaderInfo\":{\"ChildProtectionHeaderID\":\"63c90ec8-87f7-4dca-aa64-7c82c6762b8a\",\"ChildProtectionId\":null,\"CaseManagementReferral\":\"NO\",\"CaseStatusId\":null,\"ClientTypeID\":null,\"CollectionDate\":\"2020-04-30T19:59:37.976014\",\"SocialWorker\":\"Admin\",\"Remarks\":\"Fhkk\",\"FiscalYear\":null,\"ChildDetailID\":\"f754fd6f-4847-4732-a127-fdaa0664d753\",\"CreatedBy\":\"Admin\",\"CreatedOn\":\"2020-04-30T19:59:37.974637\"},\"CPCaseDetailInfo\":[{\"ChildProtectionDetailID\":\"97effefa-46f2-4189-9ceb-647bbcd7e319\",\"ChildProtectionHeaderID\":\"63c90ec8-87f7-4dca-aa64-7c82c6762b8a\",\"RiskId\":\"7\",\"ServiceId\":\"6\",\"ProviderId\":\"7\"},{\"ChildProtectionDetailID\":\"30d6ebca-56e2-4603-bb01-b78fbb0dcaf0\",\"ChildProtectionHeaderID\":\"63c90ec8-87f7-4dca-aa64-7c82c6762b8a\",\"RiskId\":\"11\",\"ServiceId\":\"7\",\"ProviderId\":\"4\"}],\"CPCaseVisitHeaderInfo\":null,\"CPCaseVisitDetailInfo\":null,\"UserDevice\":null}"}
 ****************************************************************************************************************************
||            Date: 2020-04-30   Time : 20:07:20
 ****************************************************************************************************************************

The parameterized query '(@ChildProtectionId nvarchar(4000),@ChildDetailID uniqueidentifi' expects the parameter '@ChildProtectionId', which was not supplied. 
 
 

 ****************************************************************************************************************************
||            Date: 2020-04-30   Time : 20:09:42
 ****************************************************************************************************************************
 api/Compliance/PostHouseholdChildProtectionData/ 
 {"ISNPInfo":"{\"CPCaseHeaderInfo\":{\"ChildProtectionHeaderID\":\"63c90ec8-87f7-4dca-aa64-7c82c6762b8a\",\"ChildProtectionId\":null,\"CaseManagementReferral\":\"NO\",\"CaseStatusId\":null,\"ClientTypeID\":null,\"CollectionDate\":\"2020-04-30T19:59:37.976014\",\"SocialWorker\":\"Admin\",\"Remarks\":\"Fhkk\",\"FiscalYear\":null,\"ChildDetailID\":\"f754fd6f-4847-4732-a127-fdaa0664d753\",\"CreatedBy\":\"Admin\",\"CreatedOn\":\"2020-04-30T19:59:37.974637\"},\"CPCaseDetailInfo\":[{\"ChildProtectionDetailID\":\"97effefa-46f2-4189-9ceb-647bbcd7e319\",\"ChildProtectionHeaderID\":\"63c90ec8-87f7-4dca-aa64-7c82c6762b8a\",\"RiskId\":\"7\",\"ServiceId\":\"6\",\"ProviderId\":\"7\"},{\"ChildProtectionDetailID\":\"30d6ebca-56e2-4603-bb01-b78fbb0dcaf0\",\"ChildProtectionHeaderID\":\"63c90ec8-87f7-4dca-aa64-7c82c6762b8a\",\"RiskId\":\"11\",\"ServiceId\":\"7\",\"ProviderId\":\"4\"}],\"CPCaseVisitHeaderInfo\":null,\"CPCaseVisitDetailInfo\":null,\"UserDevice\":null}"}
 ****************************************************************************************************************************
||            Date: 2020-04-30   Time : 20:09:42
 ****************************************************************************************************************************

The parameterized query '(@ChildProtectionId nvarchar(4000),@ChildDetailID uniqueidentifi' expects the parameter '@ChildProtectionId', which was not supplied. 
 
 

 ****************************************************************************************************************************
||            Date: 2020-04-30   Time : 20:09:59
 ****************************************************************************************************************************
 api/Compliance/PostHouseholdChildProtectionData/ 
 {"ISNPInfo":"{\"CPCaseHeaderInfo\":{\"ChildProtectionHeaderID\":\"63c90ec8-87f7-4dca-aa64-7c82c6762b8a\",\"ChildProtectionId\":null,\"CaseManagementReferral\":\"NO\",\"CaseStatusId\":null,\"ClientTypeID\":null,\"CollectionDate\":\"2020-04-30T19:59:37.976014\",\"SocialWorker\":\"Admin\",\"Remarks\":\"Fhkk\",\"FiscalYear\":null,\"ChildDetailID\":\"f754fd6f-4847-4732-a127-fdaa0664d753\",\"CreatedBy\":\"Admin\",\"CreatedOn\":\"2020-04-30T19:59:37.974637\"},\"CPCaseDetailInfo\":[{\"ChildProtectionDetailID\":\"97effefa-46f2-4189-9ceb-647bbcd7e319\",\"ChildProtectionHeaderID\":\"63c90ec8-87f7-4dca-aa64-7c82c6762b8a\",\"RiskId\":\"7\",\"ServiceId\":\"6\",\"ProviderId\":\"7\"},{\"ChildProtectionDetailID\":\"30d6ebca-56e2-4603-bb01-b78fbb0dcaf0\",\"ChildProtectionHeaderID\":\"63c90ec8-87f7-4dca-aa64-7c82c6762b8a\",\"RiskId\":\"11\",\"ServiceId\":\"7\",\"ProviderId\":\"4\"}],\"CPCaseVisitHeaderInfo\":null,\"CPCaseVisitDetailInfo\":null,\"UserDevice\":null}"}
 ****************************************************************************************************************************
